{
    "componentChunkName": "component---node-modules-gatsby-theme-timeline-src-templates-posts-query-js",
    "path": "/tags/zh/page/8",
    "result": {"data":{"site":{"siteMetadata":{"title":"Owen Young's Story","author":"Owen Young","description":"All my stories are here","keywords":["Owen","Owen Young","Blog","Story"],"siteUrl":"https://blog.owenyoung.com","telegram":"@theowenyoung","iconUrl":"/icon.png","defaultSocialImageUrl":null,"social":[{"name":"About","url":"https://wiki.owenyoung.com/about","external":null},{"name":"Now","url":"https://wiki.owenyoung.com/now","external":null},{"name":"Projects","url":"https://wiki.owenyoung.com/projects","external":null},{"name":"Github @theowenyoung","url":"https://github.com/theowenyoung","external":null},{"name":"Twitter @TheOwenYoung","url":"https://twitter.com/TheOwenYoung","external":null},{"name":"中文Twitter @OwenYoung_zh","url":"https://twitter.com/OwenYoung_zh","external":null},{"name":"Telegram @theowenyoung","url":"https://t.me/theowenyoung","external":null},{"name":"Instagram @iamowenyoung","url":"https://www.instagram.com/iamowenyoung/","external":null},{"name":"RSS","url":"/rss.xml","external":null},{"name":"English RSS","url":"/en/rss.xml","external":null},{"name":"中文RSS","url":"/zh/rss.xml","external":null},{"name":"Source","url":"https://github.com/theowenyoung/story","external":null},{"name":"Site Source","url":"https://github.com/theowenyoung/theowenyoung.github.io","external":null}],"menuLinks":[{"name":"仅显示中文","url":"/zh","external":null},{"name":"Only English","url":"/en","external":null}],"disqus":null,"utterances":{"repo":"theowenyoung/story","label":"comment"}}},"tagsGroup":{"group":[{"fieldValue":"Actionsflow","totalCount":3},{"fieldValue":"Blog","totalCount":1},{"fieldValue":"Buzzing","totalCount":1},{"fieldValue":"Entwickler","totalCount":1},{"fieldValue":"Gatsby","totalCount":2},{"fieldValue":"Github Actions","totalCount":1},{"fieldValue":"Hacker News","totalCount":1},{"fieldValue":"IFTTT","totalCount":1},{"fieldValue":"Instagram","totalCount":4},{"fieldValue":"MyTwitterAnniversary","totalCount":1},{"fieldValue":"Product","totalCount":1},{"fieldValue":"Reddit","totalCount":2},{"fieldValue":"Release","totalCount":1},{"fieldValue":"Stack","totalCount":1},{"fieldValue":"Theme","totalCount":2},{"fieldValue":"about.md","totalCount":1},{"fieldValue":"anki","totalCount":1},{"fieldValue":"coronavirus","totalCount":1},{"fieldValue":"en","totalCount":50},{"fieldValue":"hello","totalCount":2},{"fieldValue":"image","totalCount":1},{"fieldValue":"kostenlos","totalCount":1},{"fieldValue":"markdown","totalCount":2},{"fieldValue":"news","totalCount":1},{"fieldValue":"no","totalCount":1},{"fieldValue":"now.md","totalCount":1},{"fieldValue":"post","totalCount":24},{"fieldValue":"projects.md","totalCount":1},{"fieldValue":"rsshub","totalCount":1},{"fieldValue":"test","totalCount":4},{"fieldValue":"translate","totalCount":1},{"fieldValue":"tweet","totalCount":220},{"fieldValue":"workflow","totalCount":1},{"fieldValue":"zh","totalCount":191},{"fieldValue":"分享","totalCount":1},{"fieldValue":"单词","totalCount":5},{"fieldValue":"基金","totalCount":1},{"fieldValue":"存款","totalCount":1},{"fieldValue":"学习","totalCount":8},{"fieldValue":"展望理论","totalCount":1},{"fieldValue":"投资","totalCount":2},{"fieldValue":"推特","totalCount":1},{"fieldValue":"推荐","totalCount":1},{"fieldValue":"改变","totalCount":1},{"fieldValue":"每一天","totalCount":1},{"fieldValue":"省时间就用烂设备","totalCount":1},{"fieldValue":"美股","totalCount":2},{"fieldValue":"自由职业","totalCount":1},{"fieldValue":"英文","totalCount":7},{"fieldValue":"规则","totalCount":1},{"fieldValue":"风险偏好","totalCount":1}]},"allBlogPost":{"nodes":[{"id":"TweetPost-1315618643288289280","excerpt":"","slug":"/tweet/1315618643288289280","title":"牛市恨自己沒能跟上，熊市恨自己為什麼要進入市場。","date":"October 12, 2020","dateISO":"2020-10-12T11:41:42.000Z","datetime":"2020-10-12 11:41","tags":["tweet","zh"],"image":null,"imageAlt":null,"__typename":"SocialMediaPost","provider":"Twitter","thirdPartyId":"1315618643288289280","url":"https://twitter.com/OwenYoungZh/statuses/1315618643288289280","originalUrl":null,"imageRemote":null,"video":null,"channel":null,"channelUrl":null,"author":"Owen","authorUrl":"https://twitter.com/OwenYoungZh","authorImageRemote":"https://pbs.twimg.com/profile_images/1315603145557385216/dQFmDtsf.jpg","authorImage":{"childImageSharp":{"gatsbyImageData":{"layout":"fixed","backgroundColor":"#e8e8e8","images":{"fallback":{"src":"/static/db9c6f03c7423207413feb79c800ea61/43773/dQFmDtsf.jpg","srcSet":"/static/db9c6f03c7423207413feb79c800ea61/43773/dQFmDtsf.jpg 48w,\n/static/db9c6f03c7423207413feb79c800ea61/f18e1/dQFmDtsf.jpg 96w","sizes":"48px"},"sources":[{"srcSet":"/static/db9c6f03c7423207413feb79c800ea61/e78b1/dQFmDtsf.webp 48w,\n/static/db9c6f03c7423207413feb79c800ea61/8ef24/dQFmDtsf.webp 96w","type":"image/webp","sizes":"48px"}]},"width":48,"height":48}}},"authorSlug":"OwenYoungZh","score":0,"views":null,"sharedCount":0,"likeCount":0,"sharedContent":null},{"id":"TweetPost-1315618527718457344","excerpt":"","slug":"/tweet/1315618527718457344","title":"當你女朋友是一位資深豆瓣勸分小組成員時，你的壓力有多大？\n\n她瀏覽的每一個貼都在伴隨著對你的重新審視","date":"October 12, 2020","dateISO":"2020-10-12T11:41:14.000Z","datetime":"2020-10-12 11:41","tags":["tweet","zh"],"image":null,"imageAlt":null,"__typename":"SocialMediaPost","provider":"Twitter","thirdPartyId":"1315618527718457344","url":"https://twitter.com/OwenYoungZh/statuses/1315618527718457344","originalUrl":null,"imageRemote":null,"video":null,"channel":null,"channelUrl":null,"author":"Owen","authorUrl":"https://twitter.com/OwenYoungZh","authorImageRemote":"https://pbs.twimg.com/profile_images/1315603145557385216/dQFmDtsf.jpg","authorImage":{"childImageSharp":{"gatsbyImageData":{"layout":"fixed","backgroundColor":"#e8e8e8","images":{"fallback":{"src":"/static/db9c6f03c7423207413feb79c800ea61/43773/dQFmDtsf.jpg","srcSet":"/static/db9c6f03c7423207413feb79c800ea61/43773/dQFmDtsf.jpg 48w,\n/static/db9c6f03c7423207413feb79c800ea61/f18e1/dQFmDtsf.jpg 96w","sizes":"48px"},"sources":[{"srcSet":"/static/db9c6f03c7423207413feb79c800ea61/e78b1/dQFmDtsf.webp 48w,\n/static/db9c6f03c7423207413feb79c800ea61/8ef24/dQFmDtsf.webp 96w","type":"image/webp","sizes":"48px"}]},"width":48,"height":48}}},"authorSlug":"OwenYoungZh","score":0,"views":null,"sharedCount":0,"likeCount":0,"sharedContent":null},{"id":"TweetPost-1315618306909331461","excerpt":"","slug":"/tweet/1315618306909331461","title":"看完 Billions 發現 一個公司能擁有一個專屬心理諮詢師是多麼好呀。對公司也有超大幫助，對每個員工也是。","date":"October 12, 2020","dateISO":"2020-10-12T11:40:22.000Z","datetime":"2020-10-12 11:40","tags":["tweet","zh"],"image":null,"imageAlt":null,"__typename":"SocialMediaPost","provider":"Twitter","thirdPartyId":"1315618306909331461","url":"https://twitter.com/OwenYoungZh/statuses/1315618306909331461","originalUrl":null,"imageRemote":null,"video":null,"channel":null,"channelUrl":null,"author":"Owen","authorUrl":"https://twitter.com/OwenYoungZh","authorImageRemote":"https://pbs.twimg.com/profile_images/1315603145557385216/dQFmDtsf.jpg","authorImage":{"childImageSharp":{"gatsbyImageData":{"layout":"fixed","backgroundColor":"#e8e8e8","images":{"fallback":{"src":"/static/db9c6f03c7423207413feb79c800ea61/43773/dQFmDtsf.jpg","srcSet":"/static/db9c6f03c7423207413feb79c800ea61/43773/dQFmDtsf.jpg 48w,\n/static/db9c6f03c7423207413feb79c800ea61/f18e1/dQFmDtsf.jpg 96w","sizes":"48px"},"sources":[{"srcSet":"/static/db9c6f03c7423207413feb79c800ea61/e78b1/dQFmDtsf.webp 48w,\n/static/db9c6f03c7423207413feb79c800ea61/8ef24/dQFmDtsf.webp 96w","type":"image/webp","sizes":"48px"}]},"width":48,"height":48}}},"authorSlug":"OwenYoungZh","score":0,"views":null,"sharedCount":0,"likeCount":0,"sharedContent":null},{"id":"TweetPost-1315618164714086400","excerpt":"","slug":"/tweet/1315618164714086400","title":"目前在獨立開發者路上碰到的主要問題是，一遇到難題幹活就消極，一遇到順利的活，幹活就沒日沒夜。","date":"October 12, 2020","dateISO":"2020-10-12T11:39:48.000Z","datetime":"2020-10-12 11:39","tags":["tweet","zh"],"image":null,"imageAlt":null,"__typename":"SocialMediaPost","provider":"Twitter","thirdPartyId":"1315618164714086400","url":"https://twitter.com/OwenYoungZh/statuses/1315618164714086400","originalUrl":null,"imageRemote":null,"video":null,"channel":null,"channelUrl":null,"author":"Owen","authorUrl":"https://twitter.com/OwenYoungZh","authorImageRemote":"https://pbs.twimg.com/profile_images/1315603145557385216/dQFmDtsf.jpg","authorImage":{"childImageSharp":{"gatsbyImageData":{"layout":"fixed","backgroundColor":"#e8e8e8","images":{"fallback":{"src":"/static/db9c6f03c7423207413feb79c800ea61/43773/dQFmDtsf.jpg","srcSet":"/static/db9c6f03c7423207413feb79c800ea61/43773/dQFmDtsf.jpg 48w,\n/static/db9c6f03c7423207413feb79c800ea61/f18e1/dQFmDtsf.jpg 96w","sizes":"48px"},"sources":[{"srcSet":"/static/db9c6f03c7423207413feb79c800ea61/e78b1/dQFmDtsf.webp 48w,\n/static/db9c6f03c7423207413feb79c800ea61/8ef24/dQFmDtsf.webp 96w","type":"image/webp","sizes":"48px"}]},"width":48,"height":48}}},"authorSlug":"OwenYoungZh","score":0,"views":null,"sharedCount":0,"likeCount":0,"sharedContent":null},{"id":"TweetPost-1315617977815822342","excerpt":"","slug":"/tweet/1315617977815822342","title":"好久沒有交過新朋友了。","date":"October 12, 2020","dateISO":"2020-10-12T11:39:03.000Z","datetime":"2020-10-12 11:39","tags":["tweet","zh"],"image":null,"imageAlt":null,"__typename":"SocialMediaPost","provider":"Twitter","thirdPartyId":"1315617977815822342","url":"https://twitter.com/OwenYoungZh/statuses/1315617977815822342","originalUrl":null,"imageRemote":null,"video":null,"channel":null,"channelUrl":null,"author":"Owen","authorUrl":"https://twitter.com/OwenYoungZh","authorImageRemote":"https://pbs.twimg.com/profile_images/1315603145557385216/dQFmDtsf.jpg","authorImage":{"childImageSharp":{"gatsbyImageData":{"layout":"fixed","backgroundColor":"#e8e8e8","images":{"fallback":{"src":"/static/db9c6f03c7423207413feb79c800ea61/43773/dQFmDtsf.jpg","srcSet":"/static/db9c6f03c7423207413feb79c800ea61/43773/dQFmDtsf.jpg 48w,\n/static/db9c6f03c7423207413feb79c800ea61/f18e1/dQFmDtsf.jpg 96w","sizes":"48px"},"sources":[{"srcSet":"/static/db9c6f03c7423207413feb79c800ea61/e78b1/dQFmDtsf.webp 48w,\n/static/db9c6f03c7423207413feb79c800ea61/8ef24/dQFmDtsf.webp 96w","type":"image/webp","sizes":"48px"}]},"width":48,"height":48}}},"authorSlug":"OwenYoungZh","score":0,"views":null,"sharedCount":0,"likeCount":0,"sharedContent":null},{"id":"TweetPost-1315617846030856194","excerpt":"","slug":"/tweet/1315617846030856194","title":"難怪nextjs上的關於這個項目的靈感來源有PHP，本質上nextjs還是一個靠約定的項目，不夠靈活，研究了一天，準備棄坑了，還是換gatsby吧，雖然這次項目更多的都是動態path，但是還是喜歡gatsby這種everything static generate的理念","date":"October 12, 2020","dateISO":"2020-10-12T11:38:32.000Z","datetime":"2020-10-12 11:38","tags":["tweet","zh"],"image":null,"imageAlt":null,"__typename":"SocialMediaPost","provider":"Twitter","thirdPartyId":"1315617846030856194","url":"https://twitter.com/OwenYoungZh/statuses/1315617846030856194","originalUrl":null,"imageRemote":null,"video":null,"channel":null,"channelUrl":null,"author":"Owen","authorUrl":"https://twitter.com/OwenYoungZh","authorImageRemote":"https://pbs.twimg.com/profile_images/1315603145557385216/dQFmDtsf.jpg","authorImage":{"childImageSharp":{"gatsbyImageData":{"layout":"fixed","backgroundColor":"#e8e8e8","images":{"fallback":{"src":"/static/db9c6f03c7423207413feb79c800ea61/43773/dQFmDtsf.jpg","srcSet":"/static/db9c6f03c7423207413feb79c800ea61/43773/dQFmDtsf.jpg 48w,\n/static/db9c6f03c7423207413feb79c800ea61/f18e1/dQFmDtsf.jpg 96w","sizes":"48px"},"sources":[{"srcSet":"/static/db9c6f03c7423207413feb79c800ea61/e78b1/dQFmDtsf.webp 48w,\n/static/db9c6f03c7423207413feb79c800ea61/8ef24/dQFmDtsf.webp 96w","type":"image/webp","sizes":"48px"}]},"width":48,"height":48}}},"authorSlug":"OwenYoungZh","score":0,"views":null,"sharedCount":0,"likeCount":0,"sharedContent":null},{"id":"TweetPost-1315617688325029888","excerpt":"","slug":"/tweet/1315617688325029888","title":"在 next.js 的example海洋裡學習新框架，新寫法... https://t.co/s7pSqW0QhP","date":"October 12, 2020","dateISO":"2020-10-12T11:37:54.000Z","datetime":"2020-10-12 11:37","tags":["tweet","zh"],"image":null,"imageAlt":null,"__typename":"SocialMediaPost","provider":"Twitter","thirdPartyId":"1315617688325029888","url":"https://twitter.com/OwenYoungZh/statuses/1315617688325029888","originalUrl":null,"imageRemote":null,"video":null,"channel":null,"channelUrl":null,"author":"Owen","authorUrl":"https://twitter.com/OwenYoungZh","authorImageRemote":"https://pbs.twimg.com/profile_images/1315603145557385216/dQFmDtsf.jpg","authorImage":{"childImageSharp":{"gatsbyImageData":{"layout":"fixed","backgroundColor":"#e8e8e8","images":{"fallback":{"src":"/static/db9c6f03c7423207413feb79c800ea61/43773/dQFmDtsf.jpg","srcSet":"/static/db9c6f03c7423207413feb79c800ea61/43773/dQFmDtsf.jpg 48w,\n/static/db9c6f03c7423207413feb79c800ea61/f18e1/dQFmDtsf.jpg 96w","sizes":"48px"},"sources":[{"srcSet":"/static/db9c6f03c7423207413feb79c800ea61/e78b1/dQFmDtsf.webp 48w,\n/static/db9c6f03c7423207413feb79c800ea61/8ef24/dQFmDtsf.webp 96w","type":"image/webp","sizes":"48px"}]},"width":48,"height":48}}},"authorSlug":"OwenYoungZh","score":0,"views":null,"sharedCount":0,"likeCount":0,"sharedContent":null},{"id":"TweetPost-1315617462889537537","excerpt":"","slug":"/tweet/1315617462889537537","title":"我為什麼是一個無趣的人，因為任何時候誰要我講個笑話，我根本講不出來。有人有辦法能快速講個笑話嗎？","date":"October 12, 2020","dateISO":"2020-10-12T11:37:00.000Z","datetime":"2020-10-12 11:37","tags":["tweet","zh"],"image":null,"imageAlt":null,"__typename":"SocialMediaPost","provider":"Twitter","thirdPartyId":"1315617462889537537","url":"https://twitter.com/OwenYoungZh/statuses/1315617462889537537","originalUrl":null,"imageRemote":null,"video":null,"channel":null,"channelUrl":null,"author":"Owen","authorUrl":"https://twitter.com/OwenYoungZh","authorImageRemote":"https://pbs.twimg.com/profile_images/1315603145557385216/dQFmDtsf.jpg","authorImage":{"childImageSharp":{"gatsbyImageData":{"layout":"fixed","backgroundColor":"#e8e8e8","images":{"fallback":{"src":"/static/db9c6f03c7423207413feb79c800ea61/43773/dQFmDtsf.jpg","srcSet":"/static/db9c6f03c7423207413feb79c800ea61/43773/dQFmDtsf.jpg 48w,\n/static/db9c6f03c7423207413feb79c800ea61/f18e1/dQFmDtsf.jpg 96w","sizes":"48px"},"sources":[{"srcSet":"/static/db9c6f03c7423207413feb79c800ea61/e78b1/dQFmDtsf.webp 48w,\n/static/db9c6f03c7423207413feb79c800ea61/8ef24/dQFmDtsf.webp 96w","type":"image/webp","sizes":"48px"}]},"width":48,"height":48}}},"authorSlug":"OwenYoungZh","score":0,"views":null,"sharedCount":0,"likeCount":0,"sharedContent":null},{"id":"TweetPost-1315617334459985921","excerpt":"","slug":"/tweet/1315617334459985921","title":"家裡的東西現在都有個疊音名，比如驅蚊水叫熏熏，酒精叫噴噴，風扇叫吹吹。","date":"October 12, 2020","dateISO":"2020-10-12T11:36:30.000Z","datetime":"2020-10-12 11:36","tags":["tweet","zh"],"image":null,"imageAlt":null,"__typename":"SocialMediaPost","provider":"Twitter","thirdPartyId":"1315617334459985921","url":"https://twitter.com/OwenYoungZh/statuses/1315617334459985921","originalUrl":null,"imageRemote":null,"video":null,"channel":null,"channelUrl":null,"author":"Owen","authorUrl":"https://twitter.com/OwenYoungZh","authorImageRemote":"https://pbs.twimg.com/profile_images/1315603145557385216/dQFmDtsf.jpg","authorImage":{"childImageSharp":{"gatsbyImageData":{"layout":"fixed","backgroundColor":"#e8e8e8","images":{"fallback":{"src":"/static/db9c6f03c7423207413feb79c800ea61/43773/dQFmDtsf.jpg","srcSet":"/static/db9c6f03c7423207413feb79c800ea61/43773/dQFmDtsf.jpg 48w,\n/static/db9c6f03c7423207413feb79c800ea61/f18e1/dQFmDtsf.jpg 96w","sizes":"48px"},"sources":[{"srcSet":"/static/db9c6f03c7423207413feb79c800ea61/e78b1/dQFmDtsf.webp 48w,\n/static/db9c6f03c7423207413feb79c800ea61/8ef24/dQFmDtsf.webp 96w","type":"image/webp","sizes":"48px"}]},"width":48,"height":48}}},"authorSlug":"OwenYoungZh","score":0,"views":null,"sharedCount":0,"likeCount":0,"sharedContent":null},{"id":"TweetPost-1315617240469831680","excerpt":"","slug":"/tweet/1315617240469831680","title":"電腦旁有鉛筆的時候，總會不自覺地亂寫亂畫點什麼\n\n鉛筆--一個激發人類靈感的好發明","date":"October 12, 2020","dateISO":"2020-10-12T11:36:07.000Z","datetime":"2020-10-12 11:36","tags":["tweet","zh"],"image":null,"imageAlt":null,"__typename":"SocialMediaPost","provider":"Twitter","thirdPartyId":"1315617240469831680","url":"https://twitter.com/OwenYoungZh/statuses/1315617240469831680","originalUrl":null,"imageRemote":null,"video":null,"channel":null,"channelUrl":null,"author":"Owen","authorUrl":"https://twitter.com/OwenYoungZh","authorImageRemote":"https://pbs.twimg.com/profile_images/1315603145557385216/dQFmDtsf.jpg","authorImage":{"childImageSharp":{"gatsbyImageData":{"layout":"fixed","backgroundColor":"#e8e8e8","images":{"fallback":{"src":"/static/db9c6f03c7423207413feb79c800ea61/43773/dQFmDtsf.jpg","srcSet":"/static/db9c6f03c7423207413feb79c800ea61/43773/dQFmDtsf.jpg 48w,\n/static/db9c6f03c7423207413feb79c800ea61/f18e1/dQFmDtsf.jpg 96w","sizes":"48px"},"sources":[{"srcSet":"/static/db9c6f03c7423207413feb79c800ea61/e78b1/dQFmDtsf.webp 48w,\n/static/db9c6f03c7423207413feb79c800ea61/8ef24/dQFmDtsf.webp 96w","type":"image/webp","sizes":"48px"}]},"width":48,"height":48}}},"authorSlug":"OwenYoungZh","score":0,"views":null,"sharedCount":0,"likeCount":0,"sharedContent":null},{"id":"TweetPost-1315617092582793227","excerpt":"","slug":"/tweet/1315617092582793227","title":"水管的修理工具是一個都不能少。\n水管出了毛病，先是在某寶買了個活動扳手，過幾天之後，擰開之後發現少了個墊片，然后買了個墊片回來，然後發現還少個內六角扳手，只能再去買，好在最後還是修好了。","date":"October 12, 2020","dateISO":"2020-10-12T11:35:32.000Z","datetime":"2020-10-12 11:35","tags":["tweet","zh"],"image":null,"imageAlt":null,"__typename":"SocialMediaPost","provider":"Twitter","thirdPartyId":"1315617092582793227","url":"https://twitter.com/OwenYoungZh/statuses/1315617092582793227","originalUrl":null,"imageRemote":null,"video":null,"channel":null,"channelUrl":null,"author":"Owen","authorUrl":"https://twitter.com/OwenYoungZh","authorImageRemote":"https://pbs.twimg.com/profile_images/1315603145557385216/dQFmDtsf.jpg","authorImage":{"childImageSharp":{"gatsbyImageData":{"layout":"fixed","backgroundColor":"#e8e8e8","images":{"fallback":{"src":"/static/db9c6f03c7423207413feb79c800ea61/43773/dQFmDtsf.jpg","srcSet":"/static/db9c6f03c7423207413feb79c800ea61/43773/dQFmDtsf.jpg 48w,\n/static/db9c6f03c7423207413feb79c800ea61/f18e1/dQFmDtsf.jpg 96w","sizes":"48px"},"sources":[{"srcSet":"/static/db9c6f03c7423207413feb79c800ea61/e78b1/dQFmDtsf.webp 48w,\n/static/db9c6f03c7423207413feb79c800ea61/8ef24/dQFmDtsf.webp 96w","type":"image/webp","sizes":"48px"}]},"width":48,"height":48}}},"authorSlug":"OwenYoungZh","score":0,"views":null,"sharedCount":0,"likeCount":0,"sharedContent":null},{"id":"TweetPost-1315616957782061056","excerpt":"","slug":"/tweet/1315616957782061056","title":"股票市場就像一座圍城，城外的人眼紅城內的人，覺得好賺錢，城內的交易員們則更羨慕普通人的生活，不用提心吊膽。","date":"October 12, 2020","dateISO":"2020-10-12T11:35:00.000Z","datetime":"2020-10-12 11:35","tags":["tweet","zh"],"image":null,"imageAlt":null,"__typename":"SocialMediaPost","provider":"Twitter","thirdPartyId":"1315616957782061056","url":"https://twitter.com/OwenYoungZh/statuses/1315616957782061056","originalUrl":null,"imageRemote":null,"video":null,"channel":null,"channelUrl":null,"author":"Owen","authorUrl":"https://twitter.com/OwenYoungZh","authorImageRemote":"https://pbs.twimg.com/profile_images/1315603145557385216/dQFmDtsf.jpg","authorImage":{"childImageSharp":{"gatsbyImageData":{"layout":"fixed","backgroundColor":"#e8e8e8","images":{"fallback":{"src":"/static/db9c6f03c7423207413feb79c800ea61/43773/dQFmDtsf.jpg","srcSet":"/static/db9c6f03c7423207413feb79c800ea61/43773/dQFmDtsf.jpg 48w,\n/static/db9c6f03c7423207413feb79c800ea61/f18e1/dQFmDtsf.jpg 96w","sizes":"48px"},"sources":[{"srcSet":"/static/db9c6f03c7423207413feb79c800ea61/e78b1/dQFmDtsf.webp 48w,\n/static/db9c6f03c7423207413feb79c800ea61/8ef24/dQFmDtsf.webp 96w","type":"image/webp","sizes":"48px"}]},"width":48,"height":48}}},"authorSlug":"OwenYoungZh","score":0,"views":null,"sharedCount":0,"likeCount":0,"sharedContent":null},{"id":"TweetPost-1315616561135140864","excerpt":"","slug":"/tweet/1315616561135140864","title":"準備把所有社交平台的內容都同步一份raw到github上保存，並渲染成一個博客主頁。","date":"October 12, 2020","dateISO":"2020-10-12T11:33:25.000Z","datetime":"2020-10-12 11:33","tags":["tweet","zh"],"image":null,"imageAlt":null,"__typename":"SocialMediaPost","provider":"Twitter","thirdPartyId":"1315616561135140864","url":"https://twitter.com/OwenYoungZh/statuses/1315616561135140864","originalUrl":null,"imageRemote":null,"video":null,"channel":null,"channelUrl":null,"author":"Owen","authorUrl":"https://twitter.com/OwenYoungZh","authorImageRemote":"https://pbs.twimg.com/profile_images/1315603145557385216/dQFmDtsf.jpg","authorImage":{"childImageSharp":{"gatsbyImageData":{"layout":"fixed","backgroundColor":"#e8e8e8","images":{"fallback":{"src":"/static/db9c6f03c7423207413feb79c800ea61/43773/dQFmDtsf.jpg","srcSet":"/static/db9c6f03c7423207413feb79c800ea61/43773/dQFmDtsf.jpg 48w,\n/static/db9c6f03c7423207413feb79c800ea61/f18e1/dQFmDtsf.jpg 96w","sizes":"48px"},"sources":[{"srcSet":"/static/db9c6f03c7423207413feb79c800ea61/e78b1/dQFmDtsf.webp 48w,\n/static/db9c6f03c7423207413feb79c800ea61/8ef24/dQFmDtsf.webp 96w","type":"image/webp","sizes":"48px"}]},"width":48,"height":48}}},"authorSlug":"OwenYoungZh","score":0,"views":null,"sharedCount":0,"likeCount":0,"sharedContent":null},{"id":"TweetPost-1315616396957499392","excerpt":"","slug":"/tweet/1315616396957499392","title":"最近沒用過安卓系統的同學可能不知道，安卓已經支持多用戶了，這個功能非常吸引我。","date":"October 12, 2020","dateISO":"2020-10-12T11:32:46.000Z","datetime":"2020-10-12 11:32","tags":["tweet","zh"],"image":null,"imageAlt":null,"__typename":"SocialMediaPost","provider":"Twitter","thirdPartyId":"1315616396957499392","url":"https://twitter.com/OwenYoungZh/statuses/1315616396957499392","originalUrl":null,"imageRemote":null,"video":null,"channel":null,"channelUrl":null,"author":"Owen","authorUrl":"https://twitter.com/OwenYoungZh","authorImageRemote":"https://pbs.twimg.com/profile_images/1315603145557385216/dQFmDtsf.jpg","authorImage":{"childImageSharp":{"gatsbyImageData":{"layout":"fixed","backgroundColor":"#e8e8e8","images":{"fallback":{"src":"/static/db9c6f03c7423207413feb79c800ea61/43773/dQFmDtsf.jpg","srcSet":"/static/db9c6f03c7423207413feb79c800ea61/43773/dQFmDtsf.jpg 48w,\n/static/db9c6f03c7423207413feb79c800ea61/f18e1/dQFmDtsf.jpg 96w","sizes":"48px"},"sources":[{"srcSet":"/static/db9c6f03c7423207413feb79c800ea61/e78b1/dQFmDtsf.webp 48w,\n/static/db9c6f03c7423207413feb79c800ea61/8ef24/dQFmDtsf.webp 96w","type":"image/webp","sizes":"48px"}]},"width":48,"height":48}}},"authorSlug":"OwenYoungZh","score":0,"views":null,"sharedCount":0,"likeCount":0,"sharedContent":null},{"id":"TweetPost-1315616312027013121","excerpt":"","slug":"/tweet/1315616312027013121","title":"為了構建一個完美的通用環境，常常花費我好幾天的時間。希望這是值得的。","date":"October 12, 2020","dateISO":"2020-10-12T11:32:26.000Z","datetime":"2020-10-12 11:32","tags":["tweet","zh"],"image":null,"imageAlt":null,"__typename":"SocialMediaPost","provider":"Twitter","thirdPartyId":"1315616312027013121","url":"https://twitter.com/OwenYoungZh/statuses/1315616312027013121","originalUrl":null,"imageRemote":null,"video":null,"channel":null,"channelUrl":null,"author":"Owen","authorUrl":"https://twitter.com/OwenYoungZh","authorImageRemote":"https://pbs.twimg.com/profile_images/1315603145557385216/dQFmDtsf.jpg","authorImage":{"childImageSharp":{"gatsbyImageData":{"layout":"fixed","backgroundColor":"#e8e8e8","images":{"fallback":{"src":"/static/db9c6f03c7423207413feb79c800ea61/43773/dQFmDtsf.jpg","srcSet":"/static/db9c6f03c7423207413feb79c800ea61/43773/dQFmDtsf.jpg 48w,\n/static/db9c6f03c7423207413feb79c800ea61/f18e1/dQFmDtsf.jpg 96w","sizes":"48px"},"sources":[{"srcSet":"/static/db9c6f03c7423207413feb79c800ea61/e78b1/dQFmDtsf.webp 48w,\n/static/db9c6f03c7423207413feb79c800ea61/8ef24/dQFmDtsf.webp 96w","type":"image/webp","sizes":"48px"}]},"width":48,"height":48}}},"authorSlug":"OwenYoungZh","score":0,"views":null,"sharedCount":0,"likeCount":0,"sharedContent":null},{"id":"TweetPost-1315609359322247173","excerpt":"","slug":"/tweet/1315609359322247173","title":"新開個中文推，雖然沒幾個關注，但是還是想把中文推集中放在這，順便督促自己多寫英文推。@TheOwenYoung","date":"October 12, 2020","dateISO":"2020-10-12T11:04:48.000Z","datetime":"2020-10-12 11:04","tags":["tweet","zh"],"image":null,"imageAlt":null,"__typename":"SocialMediaPost","provider":"Twitter","thirdPartyId":"1315609359322247173","url":"https://twitter.com/OwenYoungZh/statuses/1315609359322247173","originalUrl":null,"imageRemote":null,"video":null,"channel":null,"channelUrl":null,"author":"Owen","authorUrl":"https://twitter.com/OwenYoungZh","authorImageRemote":"https://pbs.twimg.com/profile_images/1315603145557385216/dQFmDtsf.jpg","authorImage":{"childImageSharp":{"gatsbyImageData":{"layout":"fixed","backgroundColor":"#e8e8e8","images":{"fallback":{"src":"/static/db9c6f03c7423207413feb79c800ea61/43773/dQFmDtsf.jpg","srcSet":"/static/db9c6f03c7423207413feb79c800ea61/43773/dQFmDtsf.jpg 48w,\n/static/db9c6f03c7423207413feb79c800ea61/f18e1/dQFmDtsf.jpg 96w","sizes":"48px"},"sources":[{"srcSet":"/static/db9c6f03c7423207413feb79c800ea61/e78b1/dQFmDtsf.webp 48w,\n/static/db9c6f03c7423207413feb79c800ea61/8ef24/dQFmDtsf.webp 96w","type":"image/webp","sizes":"48px"}]},"width":48,"height":48}}},"authorSlug":"OwenYoungZh","score":0,"views":null,"sharedCount":0,"likeCount":0,"sharedContent":null}]}},"pageContext":{"basePath":"/","pageType":"tag","tag":"zh","tagsFilter":{},"filter":{"tags":{"eq":"zh"}},"limit":25,"skip":175,"total":191,"totalPages":8,"currentPage":8,"maxWidth":1024,"maxHeight":512,"siteMetadata":null,"locale":"en","hrefLang":"en-US","originalPath":"/tags/zh/page/8","dateFormat":"MM/DD/YYYY"}},
    "staticQueryHashes": ["1239077767","1915960717","2744905544","3280999885"]}