{"componentChunkName":"component---node-modules-gatsby-theme-timeline-src-templates-posts-query-js","path":"/tags/zh/page/2","result":{"data":{"site":{"siteMetadata":{"title":"Owen Young's Story","social":[{"name":"Github","url":"https://github.com/theowenyoung"},{"name":"RSS","url":"/rss.xml"},{"name":"English RSS","url":"/en/rss.xml"},{"name":"中文RSS","url":"/zh/rss.xml"},{"name":"Twitter","url":"https://twitter.com/TheOwenYoung"},{"name":"中文Twitter","url":"https://twitter.com/OwenYoung_zh"},{"name":"Source","url":"https://github.com/theowenyoung/story"},{"name":"Site Source","url":"https://github.com/theowenyoung/theowenyoung.github.io"}]}},"tagsGroup":{"group":[{"fieldValue":"Actionsflow","totalCount":1},{"fieldValue":"Entwickler","totalCount":1},{"fieldValue":"IFTTT","totalCount":1},{"fieldValue":"anki","totalCount":1},{"fieldValue":"en","totalCount":15},{"fieldValue":"hello","totalCount":2},{"fieldValue":"image","totalCount":1},{"fieldValue":"kostenlos","totalCount":1},{"fieldValue":"markdown","totalCount":2},{"fieldValue":"post","totalCount":6},{"fieldValue":"test","totalCount":3},{"fieldValue":"tweet","totalCount":38},{"fieldValue":"zh","totalCount":29},{"fieldValue":"单词","totalCount":3},{"fieldValue":"学习","totalCount":4},{"fieldValue":"英文","totalCount":4}]},"allBlogPost":{"nodes":[{"__typename":"TweetPost","id":"TweetPost-1315616561135140900","excerpt":"準備把所有社交平台的內容都同步一份raw到github上保存，並渲染成一個博客主頁。","slug":"/tweet/1315616561135140864","title":"Tweet: \"準備把所有社交平台的內容都同步一份raw到github上保存，並渲染成...\"","date":"October 12, 2020","dateISO":"2020-10-12T11:33:25.000Z","datetime":"2020-10-12 11:33","tags":["tweet","zh"],"image":null,"imageAlt":null,"idStr":"1315616561135140864","retweeted":false,"isQuoteStatus":false,"quoteBody":null,"quoteAuthorName":null,"quoteAuthorScreenName":null,"quoteAuthorAvatar":null,"quoteImage":null,"authorName":"Owen","authorScreenName":"OwenYoung_zh","authorAvatar":{"childImageSharp":{"fixed":{"base64":"data:image/jpeg;base64,/9j/2wBDABALDA4MChAODQ4SERATGCgaGBYWGDEjJR0oOjM9PDkzODdASFxOQERXRTc4UG1RV19iZ2hnPk1xeXBkeFxlZ2P/2wBDARESEhgVGC8aGi9jQjhCY2NjY2NjY2NjY2NjY2NjY2NjY2NjY2NjY2NjY2NjY2NjY2NjY2NjY2NjY2NjY2NjY2P/wgARCAAUABQDASIAAhEBAxEB/8QAFwABAQEBAAAAAAAAAAAAAAAAAAUDBP/EABQBAQAAAAAAAAAAAAAAAAAAAAD/2gAMAwEAAhADEAAAAbOTkKIAAP/EABkQAAIDAQAAAAAAAAAAAAAAAAEDAAISIP/aAAgBAQABBQKFgxGZyxlTTj//xAAUEQEAAAAAAAAAAAAAAAAAAAAg/9oACAEDAQE/AR//xAAUEQEAAAAAAAAAAAAAAAAAAAAg/9oACAECAQE/AR//xAAdEAACAgEFAAAAAAAAAAAAAAABAgARAxASICIx/9oACAEBAAY/AoW9A07NtuOTkUsRVDj/AP/EABoQAQEAAgMAAAAAAAAAAAAAAAERABAgIVH/2gAIAQEAAT8hWeAFVwA07LNMIICVyXiJeP8A/9oADAMBAAIAAwAAABBTADz/xAAUEQEAAAAAAAAAAAAAAAAAAAAg/9oACAEDAQE/EB//xAAUEQEAAAAAAAAAAAAAAAAAAAAg/9oACAECAQE/EB//xAAeEAACAgICAwAAAAAAAAAAAAABEQAxIUEQcVGBkf/aAAgBAQABPxBo5YAQAgIMJdrowRIyittjuqmzhHGXvJLPqCpdxDwPnH//2Q==","width":48,"height":48,"src":"/static/db9c6f03c7423207413feb79c800ea61/ffcc9/dQFmDtsf.jpg","srcSet":"/static/db9c6f03c7423207413feb79c800ea61/ffcc9/dQFmDtsf.jpg 1x,\n/static/db9c6f03c7423207413feb79c800ea61/3e51d/dQFmDtsf.jpg 1.5x,\n/static/db9c6f03c7423207413feb79c800ea61/eee8e/dQFmDtsf.jpg 2x"}}}},{"__typename":"TweetPost","id":"TweetPost-1315616396957499400","excerpt":"最近沒用過安卓系統的同學可能不知道，安卓已經支持多用戶了，這個功能非常吸引我。","slug":"/tweet/1315616396957499392","title":"Tweet: \"最近沒用過安卓系統的同學可能不知道，安卓已經支持多用戶了，這個功能非常...\"","date":"October 12, 2020","dateISO":"2020-10-12T11:32:46.000Z","datetime":"2020-10-12 11:32","tags":["tweet","zh"],"image":null,"imageAlt":null,"idStr":"1315616396957499392","retweeted":false,"isQuoteStatus":false,"quoteBody":null,"quoteAuthorName":null,"quoteAuthorScreenName":null,"quoteAuthorAvatar":null,"quoteImage":null,"authorName":"Owen","authorScreenName":"OwenYoung_zh","authorAvatar":{"childImageSharp":{"fixed":{"base64":"data:image/jpeg;base64,/9j/2wBDABALDA4MChAODQ4SERATGCgaGBYWGDEjJR0oOjM9PDkzODdASFxOQERXRTc4UG1RV19iZ2hnPk1xeXBkeFxlZ2P/2wBDARESEhgVGC8aGi9jQjhCY2NjY2NjY2NjY2NjY2NjY2NjY2NjY2NjY2NjY2NjY2NjY2NjY2NjY2NjY2NjY2NjY2P/wgARCAAUABQDASIAAhEBAxEB/8QAFwABAQEBAAAAAAAAAAAAAAAAAAUDBP/EABQBAQAAAAAAAAAAAAAAAAAAAAD/2gAMAwEAAhADEAAAAbOTkKIAAP/EABkQAAIDAQAAAAAAAAAAAAAAAAEDAAISIP/aAAgBAQABBQKFgxGZyxlTTj//xAAUEQEAAAAAAAAAAAAAAAAAAAAg/9oACAEDAQE/AR//xAAUEQEAAAAAAAAAAAAAAAAAAAAg/9oACAECAQE/AR//xAAdEAACAgEFAAAAAAAAAAAAAAABAgARAxASICIx/9oACAEBAAY/AoW9A07NtuOTkUsRVDj/AP/EABoQAQEAAgMAAAAAAAAAAAAAAAERABAgIVH/2gAIAQEAAT8hWeAFVwA07LNMIICVyXiJeP8A/9oADAMBAAIAAwAAABBTADz/xAAUEQEAAAAAAAAAAAAAAAAAAAAg/9oACAEDAQE/EB//xAAUEQEAAAAAAAAAAAAAAAAAAAAg/9oACAECAQE/EB//xAAeEAACAgICAwAAAAAAAAAAAAABEQAxIUEQcVGBkf/aAAgBAQABPxBo5YAQAgIMJdrowRIyittjuqmzhHGXvJLPqCpdxDwPnH//2Q==","width":48,"height":48,"src":"/static/db9c6f03c7423207413feb79c800ea61/ffcc9/dQFmDtsf.jpg","srcSet":"/static/db9c6f03c7423207413feb79c800ea61/ffcc9/dQFmDtsf.jpg 1x,\n/static/db9c6f03c7423207413feb79c800ea61/3e51d/dQFmDtsf.jpg 1.5x,\n/static/db9c6f03c7423207413feb79c800ea61/eee8e/dQFmDtsf.jpg 2x"}}}},{"__typename":"TweetPost","id":"TweetPost-1315616312027013000","excerpt":"為了構建一個完美的通用環境，常常花費我好幾天的時間。希望這是值得的。","slug":"/tweet/1315616312027013121","title":"Tweet: \"為了構建一個完美的通用環境，常常花費我好幾天的時間。希望這是值得的。\"","date":"October 12, 2020","dateISO":"2020-10-12T11:32:26.000Z","datetime":"2020-10-12 11:32","tags":["tweet","zh"],"image":null,"imageAlt":null,"idStr":"1315616312027013121","retweeted":false,"isQuoteStatus":false,"quoteBody":null,"quoteAuthorName":null,"quoteAuthorScreenName":null,"quoteAuthorAvatar":null,"quoteImage":null,"authorName":"Owen","authorScreenName":"OwenYoung_zh","authorAvatar":{"childImageSharp":{"fixed":{"base64":"data:image/jpeg;base64,/9j/2wBDABALDA4MChAODQ4SERATGCgaGBYWGDEjJR0oOjM9PDkzODdASFxOQERXRTc4UG1RV19iZ2hnPk1xeXBkeFxlZ2P/2wBDARESEhgVGC8aGi9jQjhCY2NjY2NjY2NjY2NjY2NjY2NjY2NjY2NjY2NjY2NjY2NjY2NjY2NjY2NjY2NjY2NjY2P/wgARCAAUABQDASIAAhEBAxEB/8QAFwABAQEBAAAAAAAAAAAAAAAAAAUDBP/EABQBAQAAAAAAAAAAAAAAAAAAAAD/2gAMAwEAAhADEAAAAbOTkKIAAP/EABkQAAIDAQAAAAAAAAAAAAAAAAEDAAISIP/aAAgBAQABBQKFgxGZyxlTTj//xAAUEQEAAAAAAAAAAAAAAAAAAAAg/9oACAEDAQE/AR//xAAUEQEAAAAAAAAAAAAAAAAAAAAg/9oACAECAQE/AR//xAAdEAACAgEFAAAAAAAAAAAAAAABAgARAxASICIx/9oACAEBAAY/AoW9A07NtuOTkUsRVDj/AP/EABoQAQEAAgMAAAAAAAAAAAAAAAERABAgIVH/2gAIAQEAAT8hWeAFVwA07LNMIICVyXiJeP8A/9oADAMBAAIAAwAAABBTADz/xAAUEQEAAAAAAAAAAAAAAAAAAAAg/9oACAEDAQE/EB//xAAUEQEAAAAAAAAAAAAAAAAAAAAg/9oACAECAQE/EB//xAAeEAACAgICAwAAAAAAAAAAAAABEQAxIUEQcVGBkf/aAAgBAQABPxBo5YAQAgIMJdrowRIyittjuqmzhHGXvJLPqCpdxDwPnH//2Q==","width":48,"height":48,"src":"/static/db9c6f03c7423207413feb79c800ea61/ffcc9/dQFmDtsf.jpg","srcSet":"/static/db9c6f03c7423207413feb79c800ea61/ffcc9/dQFmDtsf.jpg 1x,\n/static/db9c6f03c7423207413feb79c800ea61/3e51d/dQFmDtsf.jpg 1.5x,\n/static/db9c6f03c7423207413feb79c800ea61/eee8e/dQFmDtsf.jpg 2x"}}}},{"__typename":"TweetPost","id":"TweetPost-1315609359322247200","excerpt":"新開個中文推，雖然沒幾個關注，但是還是想把中文推集中放在這，順便督促自己多寫英文推。@TheOwenYoung","slug":"/tweet/1315609359322247173","title":"Tweet: \"新開個中文推，雖然沒幾個關注，但是還是想把中文推集中放在這，順便督促自...\"","date":"October 12, 2020","dateISO":"2020-10-12T11:04:48.000Z","datetime":"2020-10-12 11:04","tags":["tweet","zh"],"image":null,"imageAlt":null,"idStr":"1315609359322247173","retweeted":false,"isQuoteStatus":false,"quoteBody":null,"quoteAuthorName":null,"quoteAuthorScreenName":null,"quoteAuthorAvatar":null,"quoteImage":null,"authorName":"Owen","authorScreenName":"OwenYoung_zh","authorAvatar":{"childImageSharp":{"fixed":{"base64":"data:image/jpeg;base64,/9j/2wBDABALDA4MChAODQ4SERATGCgaGBYWGDEjJR0oOjM9PDkzODdASFxOQERXRTc4UG1RV19iZ2hnPk1xeXBkeFxlZ2P/2wBDARESEhgVGC8aGi9jQjhCY2NjY2NjY2NjY2NjY2NjY2NjY2NjY2NjY2NjY2NjY2NjY2NjY2NjY2NjY2NjY2NjY2P/wgARCAAUABQDASIAAhEBAxEB/8QAFwABAQEBAAAAAAAAAAAAAAAAAAUDBP/EABQBAQAAAAAAAAAAAAAAAAAAAAD/2gAMAwEAAhADEAAAAbOTkKIAAP/EABkQAAIDAQAAAAAAAAAAAAAAAAEDAAISIP/aAAgBAQABBQKFgxGZyxlTTj//xAAUEQEAAAAAAAAAAAAAAAAAAAAg/9oACAEDAQE/AR//xAAUEQEAAAAAAAAAAAAAAAAAAAAg/9oACAECAQE/AR//xAAdEAACAgEFAAAAAAAAAAAAAAABAgARAxASICIx/9oACAEBAAY/AoW9A07NtuOTkUsRVDj/AP/EABoQAQEAAgMAAAAAAAAAAAAAAAERABAgIVH/2gAIAQEAAT8hWeAFVwA07LNMIICVyXiJeP8A/9oADAMBAAIAAwAAABBTADz/xAAUEQEAAAAAAAAAAAAAAAAAAAAg/9oACAEDAQE/EB//xAAUEQEAAAAAAAAAAAAAAAAAAAAg/9oACAECAQE/EB//xAAeEAACAgICAwAAAAAAAAAAAAABEQAxIUEQcVGBkf/aAAgBAQABPxBo5YAQAgIMJdrowRIyittjuqmzhHGXvJLPqCpdxDwPnH//2Q==","width":48,"height":48,"src":"/static/db9c6f03c7423207413feb79c800ea61/ffcc9/dQFmDtsf.jpg","srcSet":"/static/db9c6f03c7423207413feb79c800ea61/ffcc9/dQFmDtsf.jpg 1x,\n/static/db9c6f03c7423207413feb79c800ea61/3e51d/dQFmDtsf.jpg 1.5x,\n/static/db9c6f03c7423207413feb79c800ea61/eee8e/dQFmDtsf.jpg 2x"}}}}]}},"pageContext":{"basePath":"/","pageType":"tag","tag":"zh","tagsFilter":{},"filter":{"tags":{"eq":"zh"}},"limit":25,"skip":25,"total":29,"totalPages":2,"currentPage":2,"maxWidth":1380,"maxHeight":512,"locale":"en","hrefLang":"en-US","originalPath":"/tags/zh/page/2","dateFormat":"MM/DD/YYYY"}},"staticQueryHashes":["1239077767","2744905544","3493603132","3493603132","386998304","764694655","998964505"]}