{
    "componentChunkName": "component---node-modules-gatsby-theme-timeline-src-templates-posts-query-js",
    "path": "/en/page/3/",
    "result": {"data":{"site":{"siteMetadata":{"title":"Owen Young's Story","author":"Owen Young","description":"All my stories are here","keywords":["Owen","Owen Young","Blog","Story"],"siteUrl":"https://blog.owenyoung.com","telegram":"@theowenyoung","iconUrl":"/icon.png","defaultSocialImageUrl":null,"social":[{"name":"About","url":"https://wiki.owenyoung.com/about","external":null},{"name":"Now","url":"https://wiki.owenyoung.com/now","external":null},{"name":"Projects","url":"https://wiki.owenyoung.com/projects","external":null},{"name":"Github @theowenyoung","url":"https://github.com/theowenyoung","external":null},{"name":"Twitter @TheOwenYoung","url":"https://twitter.com/TheOwenYoung","external":null},{"name":"中文Twitter @OwenYoung_zh","url":"https://twitter.com/OwenYoung_zh","external":null},{"name":"Telegram @theowenyoung","url":"https://t.me/theowenyoung","external":null},{"name":"Instagram @iamowenyoung","url":"https://www.instagram.com/iamowenyoung/","external":null},{"name":"RSS","url":"/rss.xml","external":null},{"name":"English RSS","url":"/en/rss.xml","external":null},{"name":"中文RSS","url":"/zh/rss.xml","external":null},{"name":"Source","url":"https://github.com/theowenyoung/story","external":null},{"name":"Site Source","url":"https://github.com/theowenyoung/theowenyoung.github.io","external":null}],"menuLinks":[{"name":"仅显示中文","url":"/zh","external":null},{"name":"Only English","url":"/en","external":null}],"disqus":null,"utterances":{"repo":"theowenyoung/story","label":"comment"}}},"tagsGroup":{"group":[{"fieldValue":"Actionsflow","totalCount":1},{"fieldValue":"Blog","totalCount":1},{"fieldValue":"Entwickler","totalCount":1},{"fieldValue":"Gatsby","totalCount":2},{"fieldValue":"IFTTT","totalCount":1},{"fieldValue":"Product","totalCount":1},{"fieldValue":"Release","totalCount":1},{"fieldValue":"Stack","totalCount":1},{"fieldValue":"Theme","totalCount":2},{"fieldValue":"en","totalCount":51},{"fieldValue":"hello","totalCount":1},{"fieldValue":"image","totalCount":1},{"fieldValue":"kostenlos","totalCount":1},{"fieldValue":"markdown","totalCount":1},{"fieldValue":"post","totalCount":3},{"fieldValue":"test","totalCount":2},{"fieldValue":"tweet","totalCount":48}]},"allBlogPost":{"nodes":[{"id":"TweetPost-1242520779637448704","excerpt":"","slug":"/tweet/1242520779637448704","title":"Hello world!","date":"March 24, 2020","dateISO":"2020-03-24T18:36:53.000Z","datetime":"2020-03-24 18:36","tags":["tweet","en"],"image":null,"imageAlt":null,"__typename":"SocialMediaPost","provider":"Twitter","thirdPartyId":"1242520779637448704","url":"https://twitter.com/TheOwenYoung/statuses/1242520779637448704","originalUrl":null,"imageRemote":null,"video":null,"channel":null,"channelUrl":null,"author":"Owen Young","authorUrl":"https://twitter.com/TheOwenYoung","authorImageRemote":"https://pbs.twimg.com/profile_images/1241298955742273536/E26HEH2o.jpg","authorImage":{"childImageSharp":{"gatsbyImageData":{"layout":"fixed","backgroundColor":"#e8e8e8","images":{"fallback":{"src":"/static/3027e906dc677f55b0ae28dab7d69f83/43773/E26HEH2o.jpg","srcSet":"/static/3027e906dc677f55b0ae28dab7d69f83/43773/E26HEH2o.jpg 48w,\n/static/3027e906dc677f55b0ae28dab7d69f83/f18e1/E26HEH2o.jpg 96w","sizes":"48px"},"sources":[{"srcSet":"/static/3027e906dc677f55b0ae28dab7d69f83/e78b1/E26HEH2o.webp 48w,\n/static/3027e906dc677f55b0ae28dab7d69f83/8ef24/E26HEH2o.webp 96w","type":"image/webp","sizes":"48px"}]},"width":48,"height":48}}},"authorSlug":"TheOwenYoung","score":0,"views":null,"sharedCount":0,"likeCount":0,"sharedContent":null}]}},"pageContext":{"pageLang":"en","basePath":"/","pageType":"home","tagsFilter":{"tags":{"in":["en"]}},"filter":{"tags":{"in":["en"]}},"limit":25,"skip":50,"total":51,"totalPages":3,"currentPage":3,"maxWidth":1024,"maxHeight":512,"locale":"en","hrefLang":"en-US","originalPath":"/en/page/3/","dateFormat":"MM/DD/YYYY"}},
    "staticQueryHashes": ["1239077767","1915960717","2744905544","3280999885"]}