{"componentChunkName":"component---node-modules-gatsby-theme-timeline-src-templates-posts-query-js","path":"/zh/page/2","result":{"data":{"site":{"siteMetadata":{"title":"Owen Young's Timeline","social":[{"name":"Twitter","url":"https://twitter.com/TheOwenYoung"},{"name":"Github","url":"https://github.com/theowenyoung"},{"name":"RSS","url":"/rss.xml"},{"name":"中文RSS","url":"/zh/rss.xml"},{"name":"English","url":"/"},{"name":"中文","url":"/zh"},{"name":"Source","url":"https://github.com/theowenyoung/story"},{"name":"Site Source","url":"https://github.com/theowenyoung/theowenyoung.github.io"}]}},"tagsGroup":{"group":[{"fieldValue":"anki","totalCount":1},{"fieldValue":"hello","totalCount":1},{"fieldValue":"markdown","totalCount":1},{"fieldValue":"post","totalCount":2},{"fieldValue":"test","totalCount":1},{"fieldValue":"tweet","totalCount":24},{"fieldValue":"zh","totalCount":26},{"fieldValue":"學習","totalCount":1},{"fieldValue":"英文","totalCount":1}]},"allBlogPost":{"nodes":[{"__typename":"TweetPost","id":"TweetPost-1315609359322247200","excerpt":"新開個中文推，雖然沒幾個關注，但是還是想把中文推集中放在這，順便督促自己多寫英文推。@TheOwenYoung","slug":"/zh/tweet/1315609359322247173","title":"Tweet: \"新開個中文推，雖然沒幾個關注，但是還是想把中文推集中放在這，順便督促自...\"","date":"October 12, 2020","dateISO":"2020-10-12T11:04:48.000Z","datetime":"2020-10-12 11:04","tags":["tweet","zh"],"image":null,"imageAlt":null,"idStr":"1315609359322247173","retweeted":false,"isQuoteStatus":false,"quoteBody":null,"quoteAuthorName":null,"quoteAuthorScreenName":null,"quoteAuthorAvatar":null,"quoteImage":null,"authorName":"Owen","authorScreenName":"OwenYoung_zh","authorAvatar":{"childImageSharp":{"fixed":{"base64":"data:image/jpeg;base64,/9j/2wBDABALDA4MChAODQ4SERATGCgaGBYWGDEjJR0oOjM9PDkzODdASFxOQERXRTc4UG1RV19iZ2hnPk1xeXBkeFxlZ2P/2wBDARESEhgVGC8aGi9jQjhCY2NjY2NjY2NjY2NjY2NjY2NjY2NjY2NjY2NjY2NjY2NjY2NjY2NjY2NjY2NjY2NjY2P/wgARCAAUABQDASIAAhEBAxEB/8QAFwABAQEBAAAAAAAAAAAAAAAAAAUDBP/EABQBAQAAAAAAAAAAAAAAAAAAAAD/2gAMAwEAAhADEAAAAbOTkKIAAP/EABkQAAIDAQAAAAAAAAAAAAAAAAEDAAISIP/aAAgBAQABBQKFgxGZyxlTTj//xAAUEQEAAAAAAAAAAAAAAAAAAAAg/9oACAEDAQE/AR//xAAUEQEAAAAAAAAAAAAAAAAAAAAg/9oACAECAQE/AR//xAAdEAACAgEFAAAAAAAAAAAAAAABAgARAxASICIx/9oACAEBAAY/AoW9A07NtuOTkUsRVDj/AP/EABoQAQEAAgMAAAAAAAAAAAAAAAERABAgIVH/2gAIAQEAAT8hWeAFVwA07LNMIICVyXiJeP8A/9oADAMBAAIAAwAAABBTADz/xAAUEQEAAAAAAAAAAAAAAAAAAAAg/9oACAEDAQE/EB//xAAUEQEAAAAAAAAAAAAAAAAAAAAg/9oACAECAQE/EB//xAAeEAACAgICAwAAAAAAAAAAAAABEQAxIUEQcVGBkf/aAAgBAQABPxBo5YAQAgIMJdrowRIyittjuqmzhHGXvJLPqCpdxDwPnH//2Q==","width":48,"height":48,"src":"/static/db9c6f03c7423207413feb79c800ea61/ffcc9/dQFmDtsf.jpg","srcSet":"/static/db9c6f03c7423207413feb79c800ea61/ffcc9/dQFmDtsf.jpg 1x,\n/static/db9c6f03c7423207413feb79c800ea61/3e51d/dQFmDtsf.jpg 1.5x,\n/static/db9c6f03c7423207413feb79c800ea61/eee8e/dQFmDtsf.jpg 2x"}}}}]}},"pageContext":{"basePath":"/zh","pageType":"home","tagsFilter":{"tags":{"in":["zh"]}},"filter":{"tags":{"in":["zh"]}},"limit":25,"skip":25,"totalPages":2,"total":26,"currentPage":2,"maxWidth":1380,"maxHeight":512,"locale":"en","hrefLang":"en-US","originalPath":"/zh/page/2","dateFormat":"MM/DD/YYYY"}},"staticQueryHashes":["1239077767","2744905544","3493603132","3493603132","386998304","764694655","998964505"]}