{"componentChunkName":"component---node-modules-gatsby-theme-timeline-src-templates-posts-query-js","path":"/en/page/2","result":{"data":{"site":{"siteMetadata":{"title":"Owen Young's Story","description":"All my stories are here","social":[{"name":"About","url":"/about","external":null,"prefetch":null},{"name":"Now","url":"/now","external":null,"prefetch":null},{"name":"Projects","url":"/projects","external":null,"prefetch":null},{"name":"Github @theowenyoung","url":"https://github.com/theowenyoung","external":null,"prefetch":null},{"name":"Twitter @TheOwenYoung","url":"https://twitter.com/TheOwenYoung","external":null,"prefetch":null},{"name":"中文Twitter @OwenYoung_zh","url":"https://twitter.com/OwenYoung_zh","external":null,"prefetch":null},{"name":"Telegram @theowenyoung","url":"https://t.me/theowenyoung","external":null,"prefetch":null},{"name":"Instagram @iamowenyoung","url":"https://www.instagram.com/iamowenyoung/","external":null,"prefetch":null},{"name":"RSS","url":"/rss.xml","external":null,"prefetch":null},{"name":"English RSS","url":"/en/rss.xml","external":null,"prefetch":null},{"name":"中文RSS","url":"/zh/rss.xml","external":null,"prefetch":null},{"name":"Source","url":"https://github.com/theowenyoung/story","external":null,"prefetch":null},{"name":"Site Source","url":"https://github.com/theowenyoung/theowenyoung.github.io","external":null,"prefetch":null}],"menuLinks":[{"name":"仅显示中文","url":"/zh","external":null,"prefetch":null},{"name":"Only English","url":"/en","external":null,"prefetch":null}]}},"tagsGroup":{"group":[{"fieldValue":"Actionsflow","totalCount":1},{"fieldValue":"Blog","totalCount":1},{"fieldValue":"Entwickler","totalCount":1},{"fieldValue":"Gatsby","totalCount":2},{"fieldValue":"IFTTT","totalCount":1},{"fieldValue":"Product","totalCount":1},{"fieldValue":"Release","totalCount":1},{"fieldValue":"Stack","totalCount":1},{"fieldValue":"Theme","totalCount":2},{"fieldValue":"en","totalCount":26},{"fieldValue":"hello","totalCount":1},{"fieldValue":"image","totalCount":1},{"fieldValue":"kostenlos","totalCount":1},{"fieldValue":"markdown","totalCount":1},{"fieldValue":"post","totalCount":3},{"fieldValue":"test","totalCount":2},{"fieldValue":"tweet","totalCount":23}]},"allBlogPost":{"nodes":[{"__typename":"SocialMediaPost","id":"TweetPost-1242520779637448704","excerpt":"","slug":"/tweet/1242520779637448704","title":"Hello world!","date":"March 24, 2020","dateISO":"2020-03-24T18:36:53.000Z","datetime":"2020-03-24 18:36","tags":["tweet","en"],"image":null,"imageAlt":null,"provider":"Twitter","thirdPartyId":"1242520779637448704","url":"https://twitter.com/TheOwenYoung/statuses/1242520779637448704","originalUrl":null,"imageRemote":null,"video":null,"channel":null,"channelUrl":null,"author":"Owen Young","authorUrl":"https://twitter.com/TheOwenYoung","authorImage":{"childImageSharp":{"fixed":{"base64":"data:image/jpeg;base64,/9j/2wBDABALDA4MChAODQ4SERATGCgaGBYWGDEjJR0oOjM9PDkzODdASFxOQERXRTc4UG1RV19iZ2hnPk1xeXBkeFxlZ2P/2wBDARESEhgVGC8aGi9jQjhCY2NjY2NjY2NjY2NjY2NjY2NjY2NjY2NjY2NjY2NjY2NjY2NjY2NjY2NjY2NjY2NjY2P/wgARCAAUABQDASIAAhEBAxEB/8QAFwABAQEBAAAAAAAAAAAAAAAAAAUDBP/EABQBAQAAAAAAAAAAAAAAAAAAAAD/2gAMAwEAAhADEAAAAbOTkKIAAP/EABoQAAICAwAAAAAAAAAAAAAAAAEDAAIREiD/2gAIAQEAAQUChYNIw1wxlTTj/8QAFBEBAAAAAAAAAAAAAAAAAAAAIP/aAAgBAwEBPwEf/8QAFBEBAAAAAAAAAAAAAAAAAAAAIP/aAAgBAgEBPwEf/8QAHRAAAgIBBQAAAAAAAAAAAAAAAQIAESIQEiAhMf/aAAgBAQAGPwKFva0ybbcfNSxFdcf/xAAbEAEAAgIDAAAAAAAAAAAAAAABABEhMRAgUf/aAAgBAQABPyFavIAWrADQbhvgjCAwvsbmoR1//9oADAMBAAIAAwAAABBDwDz/xAAUEQEAAAAAAAAAAAAAAAAAAAAg/9oACAEDAQE/EB//xAAUEQEAAAAAAAAAAAAAAAAAAAAg/9oACAECAQE/EB//xAAcEAEBAAICAwAAAAAAAAAAAAABEQAxIXEQIEH/2gAIAQEAAT8Q5xqAwDAwFbAHT4DwQ0oad61gf9PMg37ytfX/2Q==","width":48,"height":48,"src":"/static/3027e906dc677f55b0ae28dab7d69f83/ffcc9/E26HEH2o.jpg","srcSet":"/static/3027e906dc677f55b0ae28dab7d69f83/ffcc9/E26HEH2o.jpg 1x,\n/static/3027e906dc677f55b0ae28dab7d69f83/3e51d/E26HEH2o.jpg 1.5x,\n/static/3027e906dc677f55b0ae28dab7d69f83/eee8e/E26HEH2o.jpg 2x"}}},"authorSlug":"TheOwenYoung","score":0,"views":null,"sharedCount":0,"likeCount":0,"sharedContent":null}]}},"pageContext":{"pageLang":"en","basePath":"/","pageType":"home","tagsFilter":{"tags":{"in":["en"]}},"filter":{"tags":{"in":["en"]}},"limit":25,"skip":25,"total":26,"totalPages":2,"currentPage":2,"maxWidth":1024,"maxHeight":512,"locale":"en","hrefLang":"en-US","originalPath":"/en/page/2","dateFormat":"MM/DD/YYYY"}},"staticQueryHashes":["1239077767","1342380767","1915960717","2506312863","2744905544","3416761810","3493603132","3493603132","386998304"]}