{"componentChunkName":"component---node-modules-gatsby-theme-timeline-src-templates-posts-query-js","path":"/zh/tags/zh/","result":{"data":{"site":{"siteMetadata":{"title":"Owen Young's Timeline","social":[{"name":"Twitter","url":"https://twitter.com/TheOwenYoung"},{"name":"Github","url":"https://github.com/theowenyoung"},{"name":"English","url":"/"},{"name":"中文","url":"/zh"},{"name":"Source","url":"https://github.com/theowenyoung/story"},{"name":"Site Source","url":"https://github.com/theowenyoung/theowenyoung.github.io"}]}},"tagsGroup":{"group":[{"fieldValue":"hello","totalCount":1},{"fieldValue":"markdown","totalCount":1},{"fieldValue":"post","totalCount":1},{"fieldValue":"test","totalCount":1},{"fieldValue":"tweet","totalCount":22},{"fieldValue":"zh","totalCount":23}]},"allBlogPost":{"nodes":[{"__typename":"MdxBlogPost","id":"94ea813d-62ba-5fd1-a8ad-49699514b4d3","excerpt":"主要特性 支持“标准”Markdown / CommonMark和Github风格的语法，也可变身为代码编辑器； 支持实时预览、图片（跨域）上传、预格式文本/代码/表格插入、代码折叠、搜索替换、只读模式、自定义样式主题和多语言语法高亮等功能； 支持ToC（Table of…","slug":"/zh/hello-world/","title":"Hello World","date":"October 25, 2020","tags":["hello","test","markdown","post","zh"],"image":{"childImageSharp":{"fluid":{"base64":"data:image/jpeg;base64,/9j/2wBDABALDA4MChAODQ4SERATGCgaGBYWGDEjJR0oOjM9PDkzODdASFxOQERXRTc4UG1RV19iZ2hnPk1xeXBkeFxlZ2P/2wBDARESEhgVGC8aGi9jQjhCY2NjY2NjY2NjY2NjY2NjY2NjY2NjY2NjY2NjY2NjY2NjY2NjY2NjY2NjY2NjY2NjY2P/wgARCAAKABQDASIAAhEBAxEB/8QAFwAAAwEAAAAAAAAAAAAAAAAAAAMEAv/EABUBAQEAAAAAAAAAAAAAAAAAAAAB/9oADAMBAAIQAxAAAAGCtWlUMF//xAAaEAACAgMAAAAAAAAAAAAAAAABAgASAxEx/9oACAEBAAEFAg1WZ8bRzQgQ80J//8QAFBEBAAAAAAAAAAAAAAAAAAAAEP/aAAgBAwEBPwE//8QAFBEBAAAAAAAAAAAAAAAAAAAAEP/aAAgBAgEBPwE//8QAGBAAAwEBAAAAAAAAAAAAAAAAAAERAiD/2gAIAQEABj8CVJlR0j4//8QAGxABAAICAwAAAAAAAAAAAAAAAQARITFBUWH/2gAIAQEAAT8hDbm2EVkGagX1vkLohOEwGCf/2gAMAwEAAgADAAAAENzf/8QAFREBAQAAAAAAAAAAAAAAAAAAABH/2gAIAQMBAT8QiP/EABYRAQEBAAAAAAAAAAAAAAAAAAABEf/aAAgBAgEBPxCNr//EABwQAAICAgMAAAAAAAAAAAAAAAERACExQVFh8P/aAAgBAQABPxCprADNO4LiFAlryiAkAvC4iN3UsEyNQGYauJ//2Q==","aspectRatio":1.9602272727272727,"src":"/static/db212d145aac3142b74981370ee42e48/a674a/photo-1546488979-08680803296d.jpg","srcSet":"/static/db212d145aac3142b74981370ee42e48/862d9/photo-1546488979-08680803296d.jpg 345w,\n/static/db212d145aac3142b74981370ee42e48/32c8c/photo-1546488979-08680803296d.jpg 690w,\n/static/db212d145aac3142b74981370ee42e48/a674a/photo-1546488979-08680803296d.jpg 1380w,\n/static/db212d145aac3142b74981370ee42e48/9edab/photo-1546488979-08680803296d.jpg 2070w,\n/static/db212d145aac3142b74981370ee42e48/9f06f/photo-1546488979-08680803296d.jpg 2562w","sizes":"(max-width: 1380px) 100vw, 1380px"}}},"imageAlt":null},{"__typename":"TweetPost","id":"TweetPost-1317501302574772200","excerpt":"想要薅線下超市的羊毛比登天還難。","slug":"/zh/tweet/1317501302574772224","title":"Tweet: \"想要薅線下超市的羊毛比登天還...\"","date":"October 17, 2020","tags":["tweet","zh"],"image":null,"imageAlt":null,"idStr":"1317501302574772224","retweeted":false,"isQuoteStatus":false,"quoteBody":null,"quoteAuthorName":null,"quoteAuthorScreenName":null,"quoteAuthorAvatar":null,"quoteImage":null,"authorName":"Owen","authorScreenName":"OwenYoung_zh","authorAvatar":{"childImageSharp":{"fixed":{"base64":"data:image/jpeg;base64,/9j/2wBDABALDA4MChAODQ4SERATGCgaGBYWGDEjJR0oOjM9PDkzODdASFxOQERXRTc4UG1RV19iZ2hnPk1xeXBkeFxlZ2P/2wBDARESEhgVGC8aGi9jQjhCY2NjY2NjY2NjY2NjY2NjY2NjY2NjY2NjY2NjY2NjY2NjY2NjY2NjY2NjY2NjY2NjY2P/wgARCAAUABQDASIAAhEBAxEB/8QAFwABAQEBAAAAAAAAAAAAAAAAAAUDBP/EABQBAQAAAAAAAAAAAAAAAAAAAAD/2gAMAwEAAhADEAAAAbOTkKIAAP/EABkQAAIDAQAAAAAAAAAAAAAAAAEDAAISIP/aAAgBAQABBQKFgxGZyxlTTj//xAAUEQEAAAAAAAAAAAAAAAAAAAAg/9oACAEDAQE/AR//xAAUEQEAAAAAAAAAAAAAAAAAAAAg/9oACAECAQE/AR//xAAdEAACAgEFAAAAAAAAAAAAAAABAgARAxASICIx/9oACAEBAAY/AoW9A07NtuOTkUsRVDj/AP/EABoQAQEAAgMAAAAAAAAAAAAAAAERABAgIVH/2gAIAQEAAT8hWeAFVwA07LNMIICVyXiJeP8A/9oADAMBAAIAAwAAABBTADz/xAAUEQEAAAAAAAAAAAAAAAAAAAAg/9oACAEDAQE/EB//xAAUEQEAAAAAAAAAAAAAAAAAAAAg/9oACAECAQE/EB//xAAeEAACAgICAwAAAAAAAAAAAAABEQAxIUEQcVGBkf/aAAgBAQABPxBo5YAQAgIMJdrowRIyittjuqmzhHGXvJLPqCpdxDwPnH//2Q==","width":48,"height":48,"src":"/static/db9c6f03c7423207413feb79c800ea61/ffcc9/dQFmDtsf.jpg","srcSet":"/static/db9c6f03c7423207413feb79c800ea61/ffcc9/dQFmDtsf.jpg 1x,\n/static/db9c6f03c7423207413feb79c800ea61/3e51d/dQFmDtsf.jpg 1.5x,\n/static/db9c6f03c7423207413feb79c800ea61/eee8e/dQFmDtsf.jpg 2x"}}}},{"__typename":"TweetPost","id":"TweetPost-1316726983707951000","excerpt":"如果我是歷史老師的話，我覺得就每天給學生放點紀錄片，讓他們了解下一百年前國外的大師和普通人每天的生活。","slug":"/zh/tweet/1316726983707951104","title":"Tweet: \"如果我是歷史老師的話，我覺得...\"","date":"October 15, 2020","tags":["tweet","zh"],"image":null,"imageAlt":null,"idStr":"1316726983707951104","retweeted":false,"isQuoteStatus":false,"quoteBody":null,"quoteAuthorName":null,"quoteAuthorScreenName":null,"quoteAuthorAvatar":null,"quoteImage":null,"authorName":"Owen","authorScreenName":"OwenYoung_zh","authorAvatar":{"childImageSharp":{"fixed":{"base64":"data:image/jpeg;base64,/9j/2wBDABALDA4MChAODQ4SERATGCgaGBYWGDEjJR0oOjM9PDkzODdASFxOQERXRTc4UG1RV19iZ2hnPk1xeXBkeFxlZ2P/2wBDARESEhgVGC8aGi9jQjhCY2NjY2NjY2NjY2NjY2NjY2NjY2NjY2NjY2NjY2NjY2NjY2NjY2NjY2NjY2NjY2NjY2P/wgARCAAUABQDASIAAhEBAxEB/8QAFwABAQEBAAAAAAAAAAAAAAAAAAUDBP/EABQBAQAAAAAAAAAAAAAAAAAAAAD/2gAMAwEAAhADEAAAAbOTkKIAAP/EABkQAAIDAQAAAAAAAAAAAAAAAAEDAAISIP/aAAgBAQABBQKFgxGZyxlTTj//xAAUEQEAAAAAAAAAAAAAAAAAAAAg/9oACAEDAQE/AR//xAAUEQEAAAAAAAAAAAAAAAAAAAAg/9oACAECAQE/AR//xAAdEAACAgEFAAAAAAAAAAAAAAABAgARAxASICIx/9oACAEBAAY/AoW9A07NtuOTkUsRVDj/AP/EABoQAQEAAgMAAAAAAAAAAAAAAAERABAgIVH/2gAIAQEAAT8hWeAFVwA07LNMIICVyXiJeP8A/9oADAMBAAIAAwAAABBTADz/xAAUEQEAAAAAAAAAAAAAAAAAAAAg/9oACAEDAQE/EB//xAAUEQEAAAAAAAAAAAAAAAAAAAAg/9oACAECAQE/EB//xAAeEAACAgICAwAAAAAAAAAAAAABEQAxIUEQcVGBkf/aAAgBAQABPxBo5YAQAgIMJdrowRIyittjuqmzhHGXvJLPqCpdxDwPnH//2Q==","width":48,"height":48,"src":"/static/db9c6f03c7423207413feb79c800ea61/ffcc9/dQFmDtsf.jpg","srcSet":"/static/db9c6f03c7423207413feb79c800ea61/ffcc9/dQFmDtsf.jpg 1x,\n/static/db9c6f03c7423207413feb79c800ea61/3e51d/dQFmDtsf.jpg 1.5x,\n/static/db9c6f03c7423207413feb79c800ea61/eee8e/dQFmDtsf.jpg 2x"}}}},{"__typename":"TweetPost","id":"TweetPost-1315619083669311500","excerpt":"js養成的習慣，不管啥語言，等於都要用 \"===\"","slug":"/zh/tweet/1315619083669311488","title":"Tweet: \"js養成的習慣，不管啥語言，...\"","date":"October 12, 2020","tags":["tweet","zh"],"image":null,"imageAlt":null,"idStr":"1315619083669311488","retweeted":false,"isQuoteStatus":false,"quoteBody":null,"quoteAuthorName":null,"quoteAuthorScreenName":null,"quoteAuthorAvatar":null,"quoteImage":null,"authorName":"Owen","authorScreenName":"OwenYoung_zh","authorAvatar":{"childImageSharp":{"fixed":{"base64":"data:image/jpeg;base64,/9j/2wBDABALDA4MChAODQ4SERATGCgaGBYWGDEjJR0oOjM9PDkzODdASFxOQERXRTc4UG1RV19iZ2hnPk1xeXBkeFxlZ2P/2wBDARESEhgVGC8aGi9jQjhCY2NjY2NjY2NjY2NjY2NjY2NjY2NjY2NjY2NjY2NjY2NjY2NjY2NjY2NjY2NjY2NjY2P/wgARCAAUABQDASIAAhEBAxEB/8QAFwABAQEBAAAAAAAAAAAAAAAAAAUDBP/EABQBAQAAAAAAAAAAAAAAAAAAAAD/2gAMAwEAAhADEAAAAbOTkKIAAP/EABkQAAIDAQAAAAAAAAAAAAAAAAEDAAISIP/aAAgBAQABBQKFgxGZyxlTTj//xAAUEQEAAAAAAAAAAAAAAAAAAAAg/9oACAEDAQE/AR//xAAUEQEAAAAAAAAAAAAAAAAAAAAg/9oACAECAQE/AR//xAAdEAACAgEFAAAAAAAAAAAAAAABAgARAxASICIx/9oACAEBAAY/AoW9A07NtuOTkUsRVDj/AP/EABoQAQEAAgMAAAAAAAAAAAAAAAERABAgIVH/2gAIAQEAAT8hWeAFVwA07LNMIICVyXiJeP8A/9oADAMBAAIAAwAAABBTADz/xAAUEQEAAAAAAAAAAAAAAAAAAAAg/9oACAEDAQE/EB//xAAUEQEAAAAAAAAAAAAAAAAAAAAg/9oACAECAQE/EB//xAAeEAACAgICAwAAAAAAAAAAAAABEQAxIUEQcVGBkf/aAAgBAQABPxBo5YAQAgIMJdrowRIyittjuqmzhHGXvJLPqCpdxDwPnH//2Q==","width":48,"height":48,"src":"/static/db9c6f03c7423207413feb79c800ea61/ffcc9/dQFmDtsf.jpg","srcSet":"/static/db9c6f03c7423207413feb79c800ea61/ffcc9/dQFmDtsf.jpg 1x,\n/static/db9c6f03c7423207413feb79c800ea61/3e51d/dQFmDtsf.jpg 1.5x,\n/static/db9c6f03c7423207413feb79c800ea61/eee8e/dQFmDtsf.jpg 2x"}}}},{"__typename":"TweetPost","id":"TweetPost-1315618974554439700","excerpt":"股票這個東西不適合一家人看，只能由情緒穩定的人默默處理...","slug":"/zh/tweet/1315618974554439680","title":"Tweet: \"股票這個東西不適合一家人看，...\"","date":"October 12, 2020","tags":["tweet","zh"],"image":null,"imageAlt":null,"idStr":"1315618974554439680","retweeted":false,"isQuoteStatus":false,"quoteBody":null,"quoteAuthorName":null,"quoteAuthorScreenName":null,"quoteAuthorAvatar":null,"quoteImage":null,"authorName":"Owen","authorScreenName":"OwenYoung_zh","authorAvatar":{"childImageSharp":{"fixed":{"base64":"data:image/jpeg;base64,/9j/2wBDABALDA4MChAODQ4SERATGCgaGBYWGDEjJR0oOjM9PDkzODdASFxOQERXRTc4UG1RV19iZ2hnPk1xeXBkeFxlZ2P/2wBDARESEhgVGC8aGi9jQjhCY2NjY2NjY2NjY2NjY2NjY2NjY2NjY2NjY2NjY2NjY2NjY2NjY2NjY2NjY2NjY2NjY2P/wgARCAAUABQDASIAAhEBAxEB/8QAFwABAQEBAAAAAAAAAAAAAAAAAAUDBP/EABQBAQAAAAAAAAAAAAAAAAAAAAD/2gAMAwEAAhADEAAAAbOTkKIAAP/EABkQAAIDAQAAAAAAAAAAAAAAAAEDAAISIP/aAAgBAQABBQKFgxGZyxlTTj//xAAUEQEAAAAAAAAAAAAAAAAAAAAg/9oACAEDAQE/AR//xAAUEQEAAAAAAAAAAAAAAAAAAAAg/9oACAECAQE/AR//xAAdEAACAgEFAAAAAAAAAAAAAAABAgARAxASICIx/9oACAEBAAY/AoW9A07NtuOTkUsRVDj/AP/EABoQAQEAAgMAAAAAAAAAAAAAAAERABAgIVH/2gAIAQEAAT8hWeAFVwA07LNMIICVyXiJeP8A/9oADAMBAAIAAwAAABBTADz/xAAUEQEAAAAAAAAAAAAAAAAAAAAg/9oACAEDAQE/EB//xAAUEQEAAAAAAAAAAAAAAAAAAAAg/9oACAECAQE/EB//xAAeEAACAgICAwAAAAAAAAAAAAABEQAxIUEQcVGBkf/aAAgBAQABPxBo5YAQAgIMJdrowRIyittjuqmzhHGXvJLPqCpdxDwPnH//2Q==","width":48,"height":48,"src":"/static/db9c6f03c7423207413feb79c800ea61/ffcc9/dQFmDtsf.jpg","srcSet":"/static/db9c6f03c7423207413feb79c800ea61/ffcc9/dQFmDtsf.jpg 1x,\n/static/db9c6f03c7423207413feb79c800ea61/3e51d/dQFmDtsf.jpg 1.5x,\n/static/db9c6f03c7423207413feb79c800ea61/eee8e/dQFmDtsf.jpg 2x"}}}},{"__typename":"TweetPost","id":"TweetPost-1315618879171747800","excerpt":"對我來說，只有背井離鄉才能活出真正的自己，如果留在家鄉，活著就是活給父母和親戚看。","slug":"/zh/tweet/1315618879171747842","title":"Tweet: \"對我來說，只有背井離鄉才能活...\"","date":"October 12, 2020","tags":["tweet","zh"],"image":null,"imageAlt":null,"idStr":"1315618879171747842","retweeted":false,"isQuoteStatus":false,"quoteBody":null,"quoteAuthorName":null,"quoteAuthorScreenName":null,"quoteAuthorAvatar":null,"quoteImage":null,"authorName":"Owen","authorScreenName":"OwenYoung_zh","authorAvatar":{"childImageSharp":{"fixed":{"base64":"data:image/jpeg;base64,/9j/2wBDABALDA4MChAODQ4SERATGCgaGBYWGDEjJR0oOjM9PDkzODdASFxOQERXRTc4UG1RV19iZ2hnPk1xeXBkeFxlZ2P/2wBDARESEhgVGC8aGi9jQjhCY2NjY2NjY2NjY2NjY2NjY2NjY2NjY2NjY2NjY2NjY2NjY2NjY2NjY2NjY2NjY2NjY2P/wgARCAAUABQDASIAAhEBAxEB/8QAFwABAQEBAAAAAAAAAAAAAAAAAAUDBP/EABQBAQAAAAAAAAAAAAAAAAAAAAD/2gAMAwEAAhADEAAAAbOTkKIAAP/EABkQAAIDAQAAAAAAAAAAAAAAAAEDAAISIP/aAAgBAQABBQKFgxGZyxlTTj//xAAUEQEAAAAAAAAAAAAAAAAAAAAg/9oACAEDAQE/AR//xAAUEQEAAAAAAAAAAAAAAAAAAAAg/9oACAECAQE/AR//xAAdEAACAgEFAAAAAAAAAAAAAAABAgARAxASICIx/9oACAEBAAY/AoW9A07NtuOTkUsRVDj/AP/EABoQAQEAAgMAAAAAAAAAAAAAAAERABAgIVH/2gAIAQEAAT8hWeAFVwA07LNMIICVyXiJeP8A/9oADAMBAAIAAwAAABBTADz/xAAUEQEAAAAAAAAAAAAAAAAAAAAg/9oACAEDAQE/EB//xAAUEQEAAAAAAAAAAAAAAAAAAAAg/9oACAECAQE/EB//xAAeEAACAgICAwAAAAAAAAAAAAABEQAxIUEQcVGBkf/aAAgBAQABPxBo5YAQAgIMJdrowRIyittjuqmzhHGXvJLPqCpdxDwPnH//2Q==","width":48,"height":48,"src":"/static/db9c6f03c7423207413feb79c800ea61/ffcc9/dQFmDtsf.jpg","srcSet":"/static/db9c6f03c7423207413feb79c800ea61/ffcc9/dQFmDtsf.jpg 1x,\n/static/db9c6f03c7423207413feb79c800ea61/3e51d/dQFmDtsf.jpg 1.5x,\n/static/db9c6f03c7423207413feb79c800ea61/eee8e/dQFmDtsf.jpg 2x"}}}},{"__typename":"TweetPost","id":"TweetPost-1315618746317168600","excerpt":"自從項目運行開始依賴github後，發現GitHub還是挺能出問題的，三天兩頭出現問題...","slug":"/zh/tweet/1315618746317168642","title":"Tweet: \"自從項目運行開始依賴gith...\"","date":"October 12, 2020","tags":["tweet","zh"],"image":null,"imageAlt":null,"idStr":"1315618746317168642","retweeted":false,"isQuoteStatus":false,"quoteBody":null,"quoteAuthorName":null,"quoteAuthorScreenName":null,"quoteAuthorAvatar":null,"quoteImage":null,"authorName":"Owen","authorScreenName":"OwenYoung_zh","authorAvatar":{"childImageSharp":{"fixed":{"base64":"data:image/jpeg;base64,/9j/2wBDABALDA4MChAODQ4SERATGCgaGBYWGDEjJR0oOjM9PDkzODdASFxOQERXRTc4UG1RV19iZ2hnPk1xeXBkeFxlZ2P/2wBDARESEhgVGC8aGi9jQjhCY2NjY2NjY2NjY2NjY2NjY2NjY2NjY2NjY2NjY2NjY2NjY2NjY2NjY2NjY2NjY2NjY2P/wgARCAAUABQDASIAAhEBAxEB/8QAFwABAQEBAAAAAAAAAAAAAAAAAAUDBP/EABQBAQAAAAAAAAAAAAAAAAAAAAD/2gAMAwEAAhADEAAAAbOTkKIAAP/EABkQAAIDAQAAAAAAAAAAAAAAAAEDAAISIP/aAAgBAQABBQKFgxGZyxlTTj//xAAUEQEAAAAAAAAAAAAAAAAAAAAg/9oACAEDAQE/AR//xAAUEQEAAAAAAAAAAAAAAAAAAAAg/9oACAECAQE/AR//xAAdEAACAgEFAAAAAAAAAAAAAAABAgARAxASICIx/9oACAEBAAY/AoW9A07NtuOTkUsRVDj/AP/EABoQAQEAAgMAAAAAAAAAAAAAAAERABAgIVH/2gAIAQEAAT8hWeAFVwA07LNMIICVyXiJeP8A/9oADAMBAAIAAwAAABBTADz/xAAUEQEAAAAAAAAAAAAAAAAAAAAg/9oACAEDAQE/EB//xAAUEQEAAAAAAAAAAAAAAAAAAAAg/9oACAECAQE/EB//xAAeEAACAgICAwAAAAAAAAAAAAABEQAxIUEQcVGBkf/aAAgBAQABPxBo5YAQAgIMJdrowRIyittjuqmzhHGXvJLPqCpdxDwPnH//2Q==","width":48,"height":48,"src":"/static/db9c6f03c7423207413feb79c800ea61/ffcc9/dQFmDtsf.jpg","srcSet":"/static/db9c6f03c7423207413feb79c800ea61/ffcc9/dQFmDtsf.jpg 1x,\n/static/db9c6f03c7423207413feb79c800ea61/3e51d/dQFmDtsf.jpg 1.5x,\n/static/db9c6f03c7423207413feb79c800ea61/eee8e/dQFmDtsf.jpg 2x"}}}},{"__typename":"TweetPost","id":"TweetPost-1315618643288289300","excerpt":"牛市恨自己沒能跟上，熊市恨自己為什麼要進入市場。","slug":"/zh/tweet/1315618643288289280","title":"Tweet: \"牛市恨自己沒能跟上，熊市恨自...\"","date":"October 12, 2020","tags":["tweet","zh"],"image":null,"imageAlt":null,"idStr":"1315618643288289280","retweeted":false,"isQuoteStatus":false,"quoteBody":null,"quoteAuthorName":null,"quoteAuthorScreenName":null,"quoteAuthorAvatar":null,"quoteImage":null,"authorName":"Owen","authorScreenName":"OwenYoung_zh","authorAvatar":{"childImageSharp":{"fixed":{"base64":"data:image/jpeg;base64,/9j/2wBDABALDA4MChAODQ4SERATGCgaGBYWGDEjJR0oOjM9PDkzODdASFxOQERXRTc4UG1RV19iZ2hnPk1xeXBkeFxlZ2P/2wBDARESEhgVGC8aGi9jQjhCY2NjY2NjY2NjY2NjY2NjY2NjY2NjY2NjY2NjY2NjY2NjY2NjY2NjY2NjY2NjY2NjY2P/wgARCAAUABQDASIAAhEBAxEB/8QAFwABAQEBAAAAAAAAAAAAAAAAAAUDBP/EABQBAQAAAAAAAAAAAAAAAAAAAAD/2gAMAwEAAhADEAAAAbOTkKIAAP/EABkQAAIDAQAAAAAAAAAAAAAAAAEDAAISIP/aAAgBAQABBQKFgxGZyxlTTj//xAAUEQEAAAAAAAAAAAAAAAAAAAAg/9oACAEDAQE/AR//xAAUEQEAAAAAAAAAAAAAAAAAAAAg/9oACAECAQE/AR//xAAdEAACAgEFAAAAAAAAAAAAAAABAgARAxASICIx/9oACAEBAAY/AoW9A07NtuOTkUsRVDj/AP/EABoQAQEAAgMAAAAAAAAAAAAAAAERABAgIVH/2gAIAQEAAT8hWeAFVwA07LNMIICVyXiJeP8A/9oADAMBAAIAAwAAABBTADz/xAAUEQEAAAAAAAAAAAAAAAAAAAAg/9oACAEDAQE/EB//xAAUEQEAAAAAAAAAAAAAAAAAAAAg/9oACAECAQE/EB//xAAeEAACAgICAwAAAAAAAAAAAAABEQAxIUEQcVGBkf/aAAgBAQABPxBo5YAQAgIMJdrowRIyittjuqmzhHGXvJLPqCpdxDwPnH//2Q==","width":48,"height":48,"src":"/static/db9c6f03c7423207413feb79c800ea61/ffcc9/dQFmDtsf.jpg","srcSet":"/static/db9c6f03c7423207413feb79c800ea61/ffcc9/dQFmDtsf.jpg 1x,\n/static/db9c6f03c7423207413feb79c800ea61/3e51d/dQFmDtsf.jpg 1.5x,\n/static/db9c6f03c7423207413feb79c800ea61/eee8e/dQFmDtsf.jpg 2x"}}}},{"__typename":"TweetPost","id":"TweetPost-1315618527718457300","excerpt":"當你女朋友是一位資深豆瓣勸分小組成員時，你的壓力有多大？\n\n她瀏覽的每一個貼都在伴隨著對你的重新審視","slug":"/zh/tweet/1315618527718457344","title":"Tweet: \"當你女朋友是一位資深豆瓣勸分...\"","date":"October 12, 2020","tags":["tweet","zh"],"image":null,"imageAlt":null,"idStr":"1315618527718457344","retweeted":false,"isQuoteStatus":false,"quoteBody":null,"quoteAuthorName":null,"quoteAuthorScreenName":null,"quoteAuthorAvatar":null,"quoteImage":null,"authorName":"Owen","authorScreenName":"OwenYoung_zh","authorAvatar":{"childImageSharp":{"fixed":{"base64":"data:image/jpeg;base64,/9j/2wBDABALDA4MChAODQ4SERATGCgaGBYWGDEjJR0oOjM9PDkzODdASFxOQERXRTc4UG1RV19iZ2hnPk1xeXBkeFxlZ2P/2wBDARESEhgVGC8aGi9jQjhCY2NjY2NjY2NjY2NjY2NjY2NjY2NjY2NjY2NjY2NjY2NjY2NjY2NjY2NjY2NjY2NjY2P/wgARCAAUABQDASIAAhEBAxEB/8QAFwABAQEBAAAAAAAAAAAAAAAAAAUDBP/EABQBAQAAAAAAAAAAAAAAAAAAAAD/2gAMAwEAAhADEAAAAbOTkKIAAP/EABkQAAIDAQAAAAAAAAAAAAAAAAEDAAISIP/aAAgBAQABBQKFgxGZyxlTTj//xAAUEQEAAAAAAAAAAAAAAAAAAAAg/9oACAEDAQE/AR//xAAUEQEAAAAAAAAAAAAAAAAAAAAg/9oACAECAQE/AR//xAAdEAACAgEFAAAAAAAAAAAAAAABAgARAxASICIx/9oACAEBAAY/AoW9A07NtuOTkUsRVDj/AP/EABoQAQEAAgMAAAAAAAAAAAAAAAERABAgIVH/2gAIAQEAAT8hWeAFVwA07LNMIICVyXiJeP8A/9oADAMBAAIAAwAAABBTADz/xAAUEQEAAAAAAAAAAAAAAAAAAAAg/9oACAEDAQE/EB//xAAUEQEAAAAAAAAAAAAAAAAAAAAg/9oACAECAQE/EB//xAAeEAACAgICAwAAAAAAAAAAAAABEQAxIUEQcVGBkf/aAAgBAQABPxBo5YAQAgIMJdrowRIyittjuqmzhHGXvJLPqCpdxDwPnH//2Q==","width":48,"height":48,"src":"/static/db9c6f03c7423207413feb79c800ea61/ffcc9/dQFmDtsf.jpg","srcSet":"/static/db9c6f03c7423207413feb79c800ea61/ffcc9/dQFmDtsf.jpg 1x,\n/static/db9c6f03c7423207413feb79c800ea61/3e51d/dQFmDtsf.jpg 1.5x,\n/static/db9c6f03c7423207413feb79c800ea61/eee8e/dQFmDtsf.jpg 2x"}}}},{"__typename":"TweetPost","id":"TweetPost-1315618306909331500","excerpt":"看完 Billions 發現 一個公司能擁有一個專屬心理諮詢師是多麼好呀。對公司也有超大幫助，對每個員工也是。","slug":"/zh/tweet/1315618306909331461","title":"Tweet: \"看完 Billions 發現...\"","date":"October 12, 2020","tags":["tweet","zh"],"image":null,"imageAlt":null,"idStr":"1315618306909331461","retweeted":false,"isQuoteStatus":false,"quoteBody":null,"quoteAuthorName":null,"quoteAuthorScreenName":null,"quoteAuthorAvatar":null,"quoteImage":null,"authorName":"Owen","authorScreenName":"OwenYoung_zh","authorAvatar":{"childImageSharp":{"fixed":{"base64":"data:image/jpeg;base64,/9j/2wBDABALDA4MChAODQ4SERATGCgaGBYWGDEjJR0oOjM9PDkzODdASFxOQERXRTc4UG1RV19iZ2hnPk1xeXBkeFxlZ2P/2wBDARESEhgVGC8aGi9jQjhCY2NjY2NjY2NjY2NjY2NjY2NjY2NjY2NjY2NjY2NjY2NjY2NjY2NjY2NjY2NjY2NjY2P/wgARCAAUABQDASIAAhEBAxEB/8QAFwABAQEBAAAAAAAAAAAAAAAAAAUDBP/EABQBAQAAAAAAAAAAAAAAAAAAAAD/2gAMAwEAAhADEAAAAbOTkKIAAP/EABkQAAIDAQAAAAAAAAAAAAAAAAEDAAISIP/aAAgBAQABBQKFgxGZyxlTTj//xAAUEQEAAAAAAAAAAAAAAAAAAAAg/9oACAEDAQE/AR//xAAUEQEAAAAAAAAAAAAAAAAAAAAg/9oACAECAQE/AR//xAAdEAACAgEFAAAAAAAAAAAAAAABAgARAxASICIx/9oACAEBAAY/AoW9A07NtuOTkUsRVDj/AP/EABoQAQEAAgMAAAAAAAAAAAAAAAERABAgIVH/2gAIAQEAAT8hWeAFVwA07LNMIICVyXiJeP8A/9oADAMBAAIAAwAAABBTADz/xAAUEQEAAAAAAAAAAAAAAAAAAAAg/9oACAEDAQE/EB//xAAUEQEAAAAAAAAAAAAAAAAAAAAg/9oACAECAQE/EB//xAAeEAACAgICAwAAAAAAAAAAAAABEQAxIUEQcVGBkf/aAAgBAQABPxBo5YAQAgIMJdrowRIyittjuqmzhHGXvJLPqCpdxDwPnH//2Q==","width":48,"height":48,"src":"/static/db9c6f03c7423207413feb79c800ea61/ffcc9/dQFmDtsf.jpg","srcSet":"/static/db9c6f03c7423207413feb79c800ea61/ffcc9/dQFmDtsf.jpg 1x,\n/static/db9c6f03c7423207413feb79c800ea61/3e51d/dQFmDtsf.jpg 1.5x,\n/static/db9c6f03c7423207413feb79c800ea61/eee8e/dQFmDtsf.jpg 2x"}}}},{"__typename":"TweetPost","id":"TweetPost-1315618164714086400","excerpt":"目前在獨立開發者路上碰到的主要問題是，一遇到難題幹活就消極，一遇到順利的活，幹活就沒日沒夜。","slug":"/zh/tweet/1315618164714086400","title":"Tweet: \"目前在獨立開發者路上碰到的主...\"","date":"October 12, 2020","tags":["tweet","zh"],"image":null,"imageAlt":null,"idStr":"1315618164714086400","retweeted":false,"isQuoteStatus":false,"quoteBody":null,"quoteAuthorName":null,"quoteAuthorScreenName":null,"quoteAuthorAvatar":null,"quoteImage":null,"authorName":"Owen","authorScreenName":"OwenYoung_zh","authorAvatar":{"childImageSharp":{"fixed":{"base64":"data:image/jpeg;base64,/9j/2wBDABALDA4MChAODQ4SERATGCgaGBYWGDEjJR0oOjM9PDkzODdASFxOQERXRTc4UG1RV19iZ2hnPk1xeXBkeFxlZ2P/2wBDARESEhgVGC8aGi9jQjhCY2NjY2NjY2NjY2NjY2NjY2NjY2NjY2NjY2NjY2NjY2NjY2NjY2NjY2NjY2NjY2NjY2P/wgARCAAUABQDASIAAhEBAxEB/8QAFwABAQEBAAAAAAAAAAAAAAAAAAUDBP/EABQBAQAAAAAAAAAAAAAAAAAAAAD/2gAMAwEAAhADEAAAAbOTkKIAAP/EABkQAAIDAQAAAAAAAAAAAAAAAAEDAAISIP/aAAgBAQABBQKFgxGZyxlTTj//xAAUEQEAAAAAAAAAAAAAAAAAAAAg/9oACAEDAQE/AR//xAAUEQEAAAAAAAAAAAAAAAAAAAAg/9oACAECAQE/AR//xAAdEAACAgEFAAAAAAAAAAAAAAABAgARAxASICIx/9oACAEBAAY/AoW9A07NtuOTkUsRVDj/AP/EABoQAQEAAgMAAAAAAAAAAAAAAAERABAgIVH/2gAIAQEAAT8hWeAFVwA07LNMIICVyXiJeP8A/9oADAMBAAIAAwAAABBTADz/xAAUEQEAAAAAAAAAAAAAAAAAAAAg/9oACAEDAQE/EB//xAAUEQEAAAAAAAAAAAAAAAAAAAAg/9oACAECAQE/EB//xAAeEAACAgICAwAAAAAAAAAAAAABEQAxIUEQcVGBkf/aAAgBAQABPxBo5YAQAgIMJdrowRIyittjuqmzhHGXvJLPqCpdxDwPnH//2Q==","width":48,"height":48,"src":"/static/db9c6f03c7423207413feb79c800ea61/ffcc9/dQFmDtsf.jpg","srcSet":"/static/db9c6f03c7423207413feb79c800ea61/ffcc9/dQFmDtsf.jpg 1x,\n/static/db9c6f03c7423207413feb79c800ea61/3e51d/dQFmDtsf.jpg 1.5x,\n/static/db9c6f03c7423207413feb79c800ea61/eee8e/dQFmDtsf.jpg 2x"}}}},{"__typename":"TweetPost","id":"TweetPost-1315617977815822300","excerpt":"好久沒有交過新朋友了。","slug":"/zh/tweet/1315617977815822342","title":"Tweet: \"好久沒有交過新朋友了。\"","date":"October 12, 2020","tags":["tweet","zh"],"image":null,"imageAlt":null,"idStr":"1315617977815822342","retweeted":false,"isQuoteStatus":false,"quoteBody":null,"quoteAuthorName":null,"quoteAuthorScreenName":null,"quoteAuthorAvatar":null,"quoteImage":null,"authorName":"Owen","authorScreenName":"OwenYoung_zh","authorAvatar":{"childImageSharp":{"fixed":{"base64":"data:image/jpeg;base64,/9j/2wBDABALDA4MChAODQ4SERATGCgaGBYWGDEjJR0oOjM9PDkzODdASFxOQERXRTc4UG1RV19iZ2hnPk1xeXBkeFxlZ2P/2wBDARESEhgVGC8aGi9jQjhCY2NjY2NjY2NjY2NjY2NjY2NjY2NjY2NjY2NjY2NjY2NjY2NjY2NjY2NjY2NjY2NjY2P/wgARCAAUABQDASIAAhEBAxEB/8QAFwABAQEBAAAAAAAAAAAAAAAAAAUDBP/EABQBAQAAAAAAAAAAAAAAAAAAAAD/2gAMAwEAAhADEAAAAbOTkKIAAP/EABkQAAIDAQAAAAAAAAAAAAAAAAEDAAISIP/aAAgBAQABBQKFgxGZyxlTTj//xAAUEQEAAAAAAAAAAAAAAAAAAAAg/9oACAEDAQE/AR//xAAUEQEAAAAAAAAAAAAAAAAAAAAg/9oACAECAQE/AR//xAAdEAACAgEFAAAAAAAAAAAAAAABAgARAxASICIx/9oACAEBAAY/AoW9A07NtuOTkUsRVDj/AP/EABoQAQEAAgMAAAAAAAAAAAAAAAERABAgIVH/2gAIAQEAAT8hWeAFVwA07LNMIICVyXiJeP8A/9oADAMBAAIAAwAAABBTADz/xAAUEQEAAAAAAAAAAAAAAAAAAAAg/9oACAEDAQE/EB//xAAUEQEAAAAAAAAAAAAAAAAAAAAg/9oACAECAQE/EB//xAAeEAACAgICAwAAAAAAAAAAAAABEQAxIUEQcVGBkf/aAAgBAQABPxBo5YAQAgIMJdrowRIyittjuqmzhHGXvJLPqCpdxDwPnH//2Q==","width":48,"height":48,"src":"/static/db9c6f03c7423207413feb79c800ea61/ffcc9/dQFmDtsf.jpg","srcSet":"/static/db9c6f03c7423207413feb79c800ea61/ffcc9/dQFmDtsf.jpg 1x,\n/static/db9c6f03c7423207413feb79c800ea61/3e51d/dQFmDtsf.jpg 1.5x,\n/static/db9c6f03c7423207413feb79c800ea61/eee8e/dQFmDtsf.jpg 2x"}}}},{"__typename":"TweetPost","id":"TweetPost-1315617846030856200","excerpt":"難怪nextjs上的關於這個項目的靈感來源有PHP，本質上nextjs還是一個靠約定的項目，不夠靈活，研究了一天，準備棄坑了，還是換gatsby吧，雖然這次項目更多的都是動態path，但是還是喜歡gatsby這種everything static generate的理念","slug":"/zh/tweet/1315617846030856194","title":"Tweet: \"難怪nextjs上的關於這個...\"","date":"October 12, 2020","tags":["tweet","zh"],"image":null,"imageAlt":null,"idStr":"1315617846030856194","retweeted":false,"isQuoteStatus":false,"quoteBody":null,"quoteAuthorName":null,"quoteAuthorScreenName":null,"quoteAuthorAvatar":null,"quoteImage":null,"authorName":"Owen","authorScreenName":"OwenYoung_zh","authorAvatar":{"childImageSharp":{"fixed":{"base64":"data:image/jpeg;base64,/9j/2wBDABALDA4MChAODQ4SERATGCgaGBYWGDEjJR0oOjM9PDkzODdASFxOQERXRTc4UG1RV19iZ2hnPk1xeXBkeFxlZ2P/2wBDARESEhgVGC8aGi9jQjhCY2NjY2NjY2NjY2NjY2NjY2NjY2NjY2NjY2NjY2NjY2NjY2NjY2NjY2NjY2NjY2NjY2P/wgARCAAUABQDASIAAhEBAxEB/8QAFwABAQEBAAAAAAAAAAAAAAAAAAUDBP/EABQBAQAAAAAAAAAAAAAAAAAAAAD/2gAMAwEAAhADEAAAAbOTkKIAAP/EABkQAAIDAQAAAAAAAAAAAAAAAAEDAAISIP/aAAgBAQABBQKFgxGZyxlTTj//xAAUEQEAAAAAAAAAAAAAAAAAAAAg/9oACAEDAQE/AR//xAAUEQEAAAAAAAAAAAAAAAAAAAAg/9oACAECAQE/AR//xAAdEAACAgEFAAAAAAAAAAAAAAABAgARAxASICIx/9oACAEBAAY/AoW9A07NtuOTkUsRVDj/AP/EABoQAQEAAgMAAAAAAAAAAAAAAAERABAgIVH/2gAIAQEAAT8hWeAFVwA07LNMIICVyXiJeP8A/9oADAMBAAIAAwAAABBTADz/xAAUEQEAAAAAAAAAAAAAAAAAAAAg/9oACAEDAQE/EB//xAAUEQEAAAAAAAAAAAAAAAAAAAAg/9oACAECAQE/EB//xAAeEAACAgICAwAAAAAAAAAAAAABEQAxIUEQcVGBkf/aAAgBAQABPxBo5YAQAgIMJdrowRIyittjuqmzhHGXvJLPqCpdxDwPnH//2Q==","width":48,"height":48,"src":"/static/db9c6f03c7423207413feb79c800ea61/ffcc9/dQFmDtsf.jpg","srcSet":"/static/db9c6f03c7423207413feb79c800ea61/ffcc9/dQFmDtsf.jpg 1x,\n/static/db9c6f03c7423207413feb79c800ea61/3e51d/dQFmDtsf.jpg 1.5x,\n/static/db9c6f03c7423207413feb79c800ea61/eee8e/dQFmDtsf.jpg 2x"}}}},{"__typename":"TweetPost","id":"TweetPost-1315617688325030000","excerpt":"在 next.js 的example海洋裡學習新框架，新寫法... https://t.co/s7pSqW0QhP","slug":"/zh/tweet/1315617688325029888","title":"Tweet: \"在 next.js 的exa...\"","date":"October 12, 2020","tags":["tweet","zh"],"image":null,"imageAlt":null,"idStr":"1315617688325029888","retweeted":false,"isQuoteStatus":false,"quoteBody":null,"quoteAuthorName":null,"quoteAuthorScreenName":null,"quoteAuthorAvatar":null,"quoteImage":null,"authorName":"Owen","authorScreenName":"OwenYoung_zh","authorAvatar":{"childImageSharp":{"fixed":{"base64":"data:image/jpeg;base64,/9j/2wBDABALDA4MChAODQ4SERATGCgaGBYWGDEjJR0oOjM9PDkzODdASFxOQERXRTc4UG1RV19iZ2hnPk1xeXBkeFxlZ2P/2wBDARESEhgVGC8aGi9jQjhCY2NjY2NjY2NjY2NjY2NjY2NjY2NjY2NjY2NjY2NjY2NjY2NjY2NjY2NjY2NjY2NjY2P/wgARCAAUABQDASIAAhEBAxEB/8QAFwABAQEBAAAAAAAAAAAAAAAAAAUDBP/EABQBAQAAAAAAAAAAAAAAAAAAAAD/2gAMAwEAAhADEAAAAbOTkKIAAP/EABkQAAIDAQAAAAAAAAAAAAAAAAEDAAISIP/aAAgBAQABBQKFgxGZyxlTTj//xAAUEQEAAAAAAAAAAAAAAAAAAAAg/9oACAEDAQE/AR//xAAUEQEAAAAAAAAAAAAAAAAAAAAg/9oACAECAQE/AR//xAAdEAACAgEFAAAAAAAAAAAAAAABAgARAxASICIx/9oACAEBAAY/AoW9A07NtuOTkUsRVDj/AP/EABoQAQEAAgMAAAAAAAAAAAAAAAERABAgIVH/2gAIAQEAAT8hWeAFVwA07LNMIICVyXiJeP8A/9oADAMBAAIAAwAAABBTADz/xAAUEQEAAAAAAAAAAAAAAAAAAAAg/9oACAEDAQE/EB//xAAUEQEAAAAAAAAAAAAAAAAAAAAg/9oACAECAQE/EB//xAAeEAACAgICAwAAAAAAAAAAAAABEQAxIUEQcVGBkf/aAAgBAQABPxBo5YAQAgIMJdrowRIyittjuqmzhHGXvJLPqCpdxDwPnH//2Q==","width":48,"height":48,"src":"/static/db9c6f03c7423207413feb79c800ea61/ffcc9/dQFmDtsf.jpg","srcSet":"/static/db9c6f03c7423207413feb79c800ea61/ffcc9/dQFmDtsf.jpg 1x,\n/static/db9c6f03c7423207413feb79c800ea61/3e51d/dQFmDtsf.jpg 1.5x,\n/static/db9c6f03c7423207413feb79c800ea61/eee8e/dQFmDtsf.jpg 2x"}}}},{"__typename":"TweetPost","id":"TweetPost-1315617462889537500","excerpt":"我為什麼是一個無趣的人，因為任何時候誰要我講個笑話，我根本講不出來。有人有辦法能快速講個笑話嗎？","slug":"/zh/tweet/1315617462889537537","title":"Tweet: \"我為什麼是一個無趣的人，因為...\"","date":"October 12, 2020","tags":["tweet","zh"],"image":null,"imageAlt":null,"idStr":"1315617462889537537","retweeted":false,"isQuoteStatus":false,"quoteBody":null,"quoteAuthorName":null,"quoteAuthorScreenName":null,"quoteAuthorAvatar":null,"quoteImage":null,"authorName":"Owen","authorScreenName":"OwenYoung_zh","authorAvatar":{"childImageSharp":{"fixed":{"base64":"data:image/jpeg;base64,/9j/2wBDABALDA4MChAODQ4SERATGCgaGBYWGDEjJR0oOjM9PDkzODdASFxOQERXRTc4UG1RV19iZ2hnPk1xeXBkeFxlZ2P/2wBDARESEhgVGC8aGi9jQjhCY2NjY2NjY2NjY2NjY2NjY2NjY2NjY2NjY2NjY2NjY2NjY2NjY2NjY2NjY2NjY2NjY2P/wgARCAAUABQDASIAAhEBAxEB/8QAFwABAQEBAAAAAAAAAAAAAAAAAAUDBP/EABQBAQAAAAAAAAAAAAAAAAAAAAD/2gAMAwEAAhADEAAAAbOTkKIAAP/EABkQAAIDAQAAAAAAAAAAAAAAAAEDAAISIP/aAAgBAQABBQKFgxGZyxlTTj//xAAUEQEAAAAAAAAAAAAAAAAAAAAg/9oACAEDAQE/AR//xAAUEQEAAAAAAAAAAAAAAAAAAAAg/9oACAECAQE/AR//xAAdEAACAgEFAAAAAAAAAAAAAAABAgARAxASICIx/9oACAEBAAY/AoW9A07NtuOTkUsRVDj/AP/EABoQAQEAAgMAAAAAAAAAAAAAAAERABAgIVH/2gAIAQEAAT8hWeAFVwA07LNMIICVyXiJeP8A/9oADAMBAAIAAwAAABBTADz/xAAUEQEAAAAAAAAAAAAAAAAAAAAg/9oACAEDAQE/EB//xAAUEQEAAAAAAAAAAAAAAAAAAAAg/9oACAECAQE/EB//xAAeEAACAgICAwAAAAAAAAAAAAABEQAxIUEQcVGBkf/aAAgBAQABPxBo5YAQAgIMJdrowRIyittjuqmzhHGXvJLPqCpdxDwPnH//2Q==","width":48,"height":48,"src":"/static/db9c6f03c7423207413feb79c800ea61/ffcc9/dQFmDtsf.jpg","srcSet":"/static/db9c6f03c7423207413feb79c800ea61/ffcc9/dQFmDtsf.jpg 1x,\n/static/db9c6f03c7423207413feb79c800ea61/3e51d/dQFmDtsf.jpg 1.5x,\n/static/db9c6f03c7423207413feb79c800ea61/eee8e/dQFmDtsf.jpg 2x"}}}}]}},"pageContext":{"basePath":"/zh","pageType":"tag","tag":"zh","tagsFilter":{"tags":{"in":["zh"]}},"filter":{"tags":{"in":["zh"],"eq":"zh"}},"limit":15,"skip":0,"total":23,"totalPages":2,"currentPage":1,"maxWidth":1380}},"staticQueryHashes":["2744905544","386998304","764694655","998964505"]}