{
    "componentChunkName": "component---node-modules-gatsby-theme-timeline-src-templates-posts-query-js",
    "path": "/zh/page/10/",
    "result": {"data":{"site":{"siteMetadata":{"title":"Owen Young's Story","author":"Owen Young","description":"All my stories are here","keywords":["Owen","Owen Young","Blog","Story"],"siteUrl":"https://blog.owenyoung.com","telegram":"@theowenyoung","iconUrl":"/icon.png","defaultSocialImageUrl":null,"social":[{"name":"Newsletter","url":"https://theowenyoung.substack.com","external":null},{"name":"About","url":"https://wiki.owenyoung.com/about","external":null},{"name":"Now","url":"https://wiki.owenyoung.com/now","external":null},{"name":"Projects","url":"https://wiki.owenyoung.com/projects","external":null},{"name":"Github @theowenyoung","url":"https://github.com/theowenyoung","external":null},{"name":"Twitter @TheOwenYoung","url":"https://twitter.com/TheOwenYoung","external":null},{"name":"中文Twitter @OwenYoung_zh","url":"https://twitter.com/OwenYoung_zh","external":null},{"name":"Telegram @theowenyoung","url":"https://t.me/theowenyoung","external":null},{"name":"Instagram @iamowenyoung","url":"https://www.instagram.com/iamowenyoung/","external":null},{"name":"RSS","url":"/rss.xml","external":null},{"name":"English RSS","url":"/en/rss.xml","external":null},{"name":"中文RSS","url":"/zh/rss.xml","external":null},{"name":"Source","url":"https://github.com/theowenyoung/story","external":null},{"name":"Site Source","url":"https://github.com/theowenyoung/theowenyoung.github.io","external":null}],"menuLinks":[{"name":"仅显示中文","url":"/zh","external":null},{"name":"Only English","url":"/en","external":null}],"disqus":null,"utterances":{"repo":"theowenyoung/story","label":"comment"}}},"tagsGroup":{"group":[{"fieldValue":"Actionsflow","totalCount":2},{"fieldValue":"Buzzing","totalCount":1},{"fieldValue":"Gatsby","totalCount":1},{"fieldValue":"Github Actions","totalCount":1},{"fieldValue":"Hacker News","totalCount":1},{"fieldValue":"Javascript","totalCount":1},{"fieldValue":"MyTwitterAnniversary","totalCount":1},{"fieldValue":"Notes","totalCount":1},{"fieldValue":"Reddit","totalCount":2},{"fieldValue":"anki","totalCount":1},{"fieldValue":"hello","totalCount":1},{"fieldValue":"markdown","totalCount":1},{"fieldValue":"news","totalCount":1},{"fieldValue":"post","totalCount":21},{"fieldValue":"rsshub","totalCount":1},{"fieldValue":"test","totalCount":1},{"fieldValue":"translate","totalCount":1},{"fieldValue":"tweet","totalCount":206},{"fieldValue":"workflow","totalCount":1},{"fieldValue":"zh","totalCount":227},{"fieldValue":"分享","totalCount":1},{"fieldValue":"单词","totalCount":5},{"fieldValue":"基金","totalCount":1},{"fieldValue":"存款","totalCount":1},{"fieldValue":"学习","totalCount":8},{"fieldValue":"展望理论","totalCount":1},{"fieldValue":"投资","totalCount":2},{"fieldValue":"指南","totalCount":1},{"fieldValue":"推特","totalCount":1},{"fieldValue":"推荐","totalCount":1},{"fieldValue":"改变","totalCount":1},{"fieldValue":"每一天","totalCount":1},{"fieldValue":"省时间就用烂设备","totalCount":1},{"fieldValue":"美股","totalCount":2},{"fieldValue":"翻译","totalCount":1},{"fieldValue":"自由职业","totalCount":1},{"fieldValue":"英文","totalCount":7},{"fieldValue":"规则","totalCount":1},{"fieldValue":"风险偏好","totalCount":1}]},"allBlogPost":{"nodes":[{"id":"TweetPost-1315616312027013121","excerpt":"","slug":"/tweet/1315616312027013121","title":"為了構建一個完美的通用環境，常常花費我好幾天的時間。希望這是值得的。","date":"October 12, 2020","dateISO":"2020-10-12T11:32:26.000Z","datetime":"2020-10-12 11:32","tags":["tweet","zh"],"image":null,"imageAlt":null,"__typename":"SocialMediaPost","provider":"Twitter","thirdPartyId":"1315616312027013121","url":"https://twitter.com/OwenYoungZh/statuses/1315616312027013121","originalUrl":null,"imageRemote":null,"video":null,"channel":null,"channelUrl":null,"author":"Owen","authorUrl":"https://twitter.com/OwenYoungZh","authorImageRemote":"https://pbs.twimg.com/profile_images/1315603145557385216/dQFmDtsf.jpg","authorImage":{"childImageSharp":{"gatsbyImageData":{"layout":"fixed","backgroundColor":"#e8e8e8","images":{"fallback":{"src":"/static/db9c6f03c7423207413feb79c800ea61/43773/dQFmDtsf.jpg","srcSet":"/static/db9c6f03c7423207413feb79c800ea61/43773/dQFmDtsf.jpg 48w,\n/static/db9c6f03c7423207413feb79c800ea61/f18e1/dQFmDtsf.jpg 96w","sizes":"48px"},"sources":[{"srcSet":"/static/db9c6f03c7423207413feb79c800ea61/e78b1/dQFmDtsf.webp 48w,\n/static/db9c6f03c7423207413feb79c800ea61/8ef24/dQFmDtsf.webp 96w","type":"image/webp","sizes":"48px"}]},"width":48,"height":48}}},"authorSlug":"OwenYoungZh","score":0,"views":null,"sharedCount":0,"likeCount":0,"sharedContent":null},{"id":"TweetPost-1315609359322247173","excerpt":"","slug":"/tweet/1315609359322247173","title":"新開個中文推，雖然沒幾個關注，但是還是想把中文推集中放在這，順便督促自己多寫英文推。@TheOwenYoung","date":"October 12, 2020","dateISO":"2020-10-12T11:04:48.000Z","datetime":"2020-10-12 11:04","tags":["tweet","zh"],"image":null,"imageAlt":null,"__typename":"SocialMediaPost","provider":"Twitter","thirdPartyId":"1315609359322247173","url":"https://twitter.com/OwenYoungZh/statuses/1315609359322247173","originalUrl":null,"imageRemote":null,"video":null,"channel":null,"channelUrl":null,"author":"Owen","authorUrl":"https://twitter.com/OwenYoungZh","authorImageRemote":"https://pbs.twimg.com/profile_images/1315603145557385216/dQFmDtsf.jpg","authorImage":{"childImageSharp":{"gatsbyImageData":{"layout":"fixed","backgroundColor":"#e8e8e8","images":{"fallback":{"src":"/static/db9c6f03c7423207413feb79c800ea61/43773/dQFmDtsf.jpg","srcSet":"/static/db9c6f03c7423207413feb79c800ea61/43773/dQFmDtsf.jpg 48w,\n/static/db9c6f03c7423207413feb79c800ea61/f18e1/dQFmDtsf.jpg 96w","sizes":"48px"},"sources":[{"srcSet":"/static/db9c6f03c7423207413feb79c800ea61/e78b1/dQFmDtsf.webp 48w,\n/static/db9c6f03c7423207413feb79c800ea61/8ef24/dQFmDtsf.webp 96w","type":"image/webp","sizes":"48px"}]},"width":48,"height":48}}},"authorSlug":"OwenYoungZh","score":0,"views":null,"sharedCount":0,"likeCount":0,"sharedContent":null}]}},"pageContext":{"pageLang":"zh","basePath":"/","pageType":"home","tagsFilter":{"tags":{"in":["zh"]}},"filter":{"tags":{"in":["zh"]}},"limit":25,"skip":225,"total":227,"totalPages":10,"currentPage":10,"maxWidth":1024,"maxHeight":512,"locale":"en","hrefLang":"en-US","originalPath":"/zh/page/10/","dateFormat":"MM/DD/YYYY"}},
    "staticQueryHashes": ["1239077767","1915960717","2744905544","3280999885"]}