{"componentChunkName":"component---node-modules-gatsby-theme-timeline-src-templates-posts-query-js","path":"/page/3","result":{"data":{"site":{"siteMetadata":{"title":"Owen Young's Story","description":"All my stories are here","social":[{"name":"Github","url":"https://github.com/theowenyoung","external":null,"prefetch":null},{"name":"RSS","url":"/rss.xml","external":null,"prefetch":null},{"name":"English RSS","url":"/en/rss.xml","external":null,"prefetch":null},{"name":"中文RSS","url":"/zh/rss.xml","external":null,"prefetch":null},{"name":"Twitter","url":"https://twitter.com/TheOwenYoung","external":null,"prefetch":null},{"name":"中文Twitter","url":"https://twitter.com/OwenYoung_zh","external":null,"prefetch":null},{"name":"Source","url":"https://github.com/theowenyoung/story","external":null,"prefetch":null},{"name":"Site Source","url":"https://github.com/theowenyoung/theowenyoung.github.io","external":null,"prefetch":null}],"menuLinks":[{"name":"仅显示中文","url":"/zh","external":null,"prefetch":null},{"name":"Only English","url":"/en","external":null,"prefetch":null}]}},"tagsGroup":{"group":[{"fieldValue":"Actionsflow","totalCount":1},{"fieldValue":"Entwickler","totalCount":1},{"fieldValue":"IFTTT","totalCount":1},{"fieldValue":"anki","totalCount":1},{"fieldValue":"en","totalCount":18},{"fieldValue":"hello","totalCount":2},{"fieldValue":"image","totalCount":1},{"fieldValue":"kostenlos","totalCount":1},{"fieldValue":"markdown","totalCount":2},{"fieldValue":"post","totalCount":8},{"fieldValue":"test","totalCount":3},{"fieldValue":"tweet","totalCount":45},{"fieldValue":"zh","totalCount":35},{"fieldValue":"单词","totalCount":5},{"fieldValue":"学习","totalCount":6},{"fieldValue":"英文","totalCount":6}]},"allBlogPost":{"nodes":[{"__typename":"SocialMediaPost","id":"TweetPost-1253279286317875202","excerpt":"","slug":"/tweet/1253279286317875202","title":"Jamstack for authors.","date":"April 23, 2020","dateISO":"2020-04-23T11:07:21.000Z","datetime":"2020-04-23 11:07","tags":["tweet","en"],"image":null,"imageAlt":null,"provider":"Twitter","thirdPartyId":"1253279286317875202","url":"https://twitter.com/TheOwenYoung/statuses/1253279286317875202","originalUrl":null,"imageRemote":null,"video":null,"channel":null,"channelUrl":null,"author":"Owen Young","authorUrl":"https://twitter.com/TheOwenYoung","authorImage":{"childImageSharp":{"fixed":{"base64":"data:image/jpeg;base64,/9j/2wBDABALDA4MChAODQ4SERATGCgaGBYWGDEjJR0oOjM9PDkzODdASFxOQERXRTc4UG1RV19iZ2hnPk1xeXBkeFxlZ2P/2wBDARESEhgVGC8aGi9jQjhCY2NjY2NjY2NjY2NjY2NjY2NjY2NjY2NjY2NjY2NjY2NjY2NjY2NjY2NjY2NjY2NjY2P/wgARCAAUABQDASIAAhEBAxEB/8QAFwABAQEBAAAAAAAAAAAAAAAAAAUDBP/EABQBAQAAAAAAAAAAAAAAAAAAAAD/2gAMAwEAAhADEAAAAbOTkKIAAP/EABkQAAIDAQAAAAAAAAAAAAAAAAEDAAISIP/aAAgBAQABBQKFgxGZyxlTTj//xAAUEQEAAAAAAAAAAAAAAAAAAAAg/9oACAEDAQE/AR//xAAUEQEAAAAAAAAAAAAAAAAAAAAg/9oACAECAQE/AR//xAAdEAACAgEFAAAAAAAAAAAAAAABAgARAxASICIx/9oACAEBAAY/AoW9A07NtuOTkUsRVDj/AP/EABoQAQEAAgMAAAAAAAAAAAAAAAERAFEQICH/2gAIAQEAAT8hWaAKrgBp6WcMIICV3kvES9f/2gAMAwEAAgADAAAAEFMAPP/EABQRAQAAAAAAAAAAAAAAAAAAACD/2gAIAQMBAT8QH//EABQRAQAAAAAAAAAAAAAAAAAAACD/2gAIAQIBAT8QH//EAB4QAAICAgIDAAAAAAAAAAAAAAERADEhQRBxUYGR/9oACAEBAAE/EHjlgBACAgwl2ujBEjKK8mO6qbOEcZe8ks+oKl3EPA+cf//Z","width":48,"height":48,"src":"/static/3027e906dc677f55b0ae28dab7d69f83/ffcc9/E26HEH2o.jpg","srcSet":"/static/3027e906dc677f55b0ae28dab7d69f83/ffcc9/E26HEH2o.jpg 1x,\n/static/3027e906dc677f55b0ae28dab7d69f83/3e51d/E26HEH2o.jpg 1.5x,\n/static/3027e906dc677f55b0ae28dab7d69f83/eee8e/E26HEH2o.jpg 2x"}}},"authorSlug":"TheOwenYoung","score":0,"views":null,"sharedCount":0,"likeCount":0,"sharedContent":null},{"__typename":"SocialMediaPost","id":"TweetPost-1253262538063507462","excerpt":"","slug":"/tweet/1253262538063507462","title":"RT @vercel: ZEIT is now Vercel.\n\nAnnouncing our new brand identity and $21M Series A funding.\n\nhttps://t.co/7smdU5Gsl5 https://t.co/jNoVXnq…","date":"April 23, 2020","dateISO":"2020-04-23T10:00:48.000Z","datetime":"2020-04-23 10:00","tags":["tweet","en"],"image":null,"imageAlt":null,"provider":"Twitter","thirdPartyId":"1253262538063507462","url":"https://twitter.com/TheOwenYoung/statuses/1253262538063507462","originalUrl":null,"imageRemote":null,"video":null,"channel":null,"channelUrl":null,"author":"Owen Young","authorUrl":"https://twitter.com/TheOwenYoung","authorImage":{"childImageSharp":{"fixed":{"base64":"data:image/jpeg;base64,/9j/2wBDABALDA4MChAODQ4SERATGCgaGBYWGDEjJR0oOjM9PDkzODdASFxOQERXRTc4UG1RV19iZ2hnPk1xeXBkeFxlZ2P/2wBDARESEhgVGC8aGi9jQjhCY2NjY2NjY2NjY2NjY2NjY2NjY2NjY2NjY2NjY2NjY2NjY2NjY2NjY2NjY2NjY2NjY2P/wgARCAAUABQDASIAAhEBAxEB/8QAFwABAQEBAAAAAAAAAAAAAAAAAAUDBP/EABQBAQAAAAAAAAAAAAAAAAAAAAD/2gAMAwEAAhADEAAAAbOTkKIAAP/EABkQAAIDAQAAAAAAAAAAAAAAAAEDAAISIP/aAAgBAQABBQKFgxGZyxlTTj//xAAUEQEAAAAAAAAAAAAAAAAAAAAg/9oACAEDAQE/AR//xAAUEQEAAAAAAAAAAAAAAAAAAAAg/9oACAECAQE/AR//xAAdEAACAgEFAAAAAAAAAAAAAAABAgARAxASICIx/9oACAEBAAY/AoW9A07NtuOTkUsRVDj/AP/EABoQAQEAAgMAAAAAAAAAAAAAAAERAFEQICH/2gAIAQEAAT8hWaAKrgBp6WcMIICV3kvES9f/2gAMAwEAAgADAAAAEFMAPP/EABQRAQAAAAAAAAAAAAAAAAAAACD/2gAIAQMBAT8QH//EABQRAQAAAAAAAAAAAAAAAAAAACD/2gAIAQIBAT8QH//EAB4QAAICAgIDAAAAAAAAAAAAAAERADEhQRBxUYGR/9oACAEBAAE/EHjlgBACAgwl2ujBEjKK8mO6qbOEcZe8ks+oKl3EPA+cf//Z","width":48,"height":48,"src":"/static/3027e906dc677f55b0ae28dab7d69f83/ffcc9/E26HEH2o.jpg","srcSet":"/static/3027e906dc677f55b0ae28dab7d69f83/ffcc9/E26HEH2o.jpg 1x,\n/static/3027e906dc677f55b0ae28dab7d69f83/3e51d/E26HEH2o.jpg 1.5x,\n/static/3027e906dc677f55b0ae28dab7d69f83/eee8e/E26HEH2o.jpg 2x"}}},"authorSlug":"TheOwenYoung","score":1292,"views":null,"sharedCount":646,"likeCount":0,"sharedContent":{"excerpt":"","slug":"","title":"ZEIT is now Vercel.\n\nAnnouncing our new brand identity and $21M Series A funding.\n\nhttps://t.co/7smdU5Gsl5 https://t.co/jNoVXnqpRD","date":"April 21, 2020","dateISO":"2020-04-21T09:35:08.000Z","datetime":"2020-04-21 09:35","tags":[],"imageRemote":"https://pbs.twimg.com/tweet_video_thumb/EWHiiNFWAAM0Aom.jpg","image":null,"imageAlt":"Tweet Image","authorImage":{"childImageSharp":{"fixed":{"base64":"data:image/jpeg;base64,/9j/2wBDABALDA4MChAODQ4SERATGCgaGBYWGDEjJR0oOjM9PDkzODdASFxOQERXRTc4UG1RV19iZ2hnPk1xeXBkeFxlZ2P/2wBDARESEhgVGC8aGi9jQjhCY2NjY2NjY2NjY2NjY2NjY2NjY2NjY2NjY2NjY2NjY2NjY2NjY2NjY2NjY2NjY2NjY2P/wgARCAAUABQDASIAAhEBAxEB/8QAGAABAAMBAAAAAAAAAAAAAAAAAAECBQb/xAAUAQEAAAAAAAAAAAAAAAAAAAAA/9oADAMBAAIQAxAAAAHn7TpmSAAD/8QAGxAAAQQDAAAAAAAAAAAAAAAAAgEDBBIAECD/2gAIAQEAAQUCxRUdBW8uQy8HH//EABQRAQAAAAAAAAAAAAAAAAAAACD/2gAIAQMBAT8BH//EABQRAQAAAAAAAAAAAAAAAAAAACD/2gAIAQIBAT8BH//EAB4QAAIBAwUAAAAAAAAAAAAAAAECABESMRAgITJB/9oACAEBAAY/AoKjPOgv6+0gtVgy42//xAAcEAACAQUBAAAAAAAAAAAAAAABEQAQICFBYVH/2gAIAQEAAT8hmaQROimwZdIB9wAEvLf/2gAMAwEAAgADAAAAEHAAAP/EABQRAQAAAAAAAAAAAAAAAAAAACD/2gAIAQMBAT8QH//EABQRAQAAAAAAAAAAAAAAAAAAACD/2gAIAQIBAT8QH//EAB0QAQABAwUAAAAAAAAAAAAAAAERACExECBBUXH/2gAIAQEAAT8QoxAnKZMJowtkECUchSNEBC7LHyNv/9k=","width":24,"height":24,"src":"/static/f57fac79ebd3a14abdb3c2cce39e2b63/d6e51/6R0-p1Vf.jpg","srcSet":"/static/f57fac79ebd3a14abdb3c2cce39e2b63/d6e51/6R0-p1Vf.jpg 1x,\n/static/f57fac79ebd3a14abdb3c2cce39e2b63/6d45f/6R0-p1Vf.jpg 1.5x,\n/static/f57fac79ebd3a14abdb3c2cce39e2b63/ffcc9/6R0-p1Vf.jpg 2x"}}},"video":null,"channel":null,"channelUrl":null,"author":"Vercel","authorUrl":"https://twitter.com/statuses/vercel","authorSlug":"vercel","score":null,"views":null,"sharedCount":null,"likeCount":null}},{"__typename":"SocialMediaPost","id":"TweetPost-1242520779637448704","excerpt":"","slug":"/tweet/1242520779637448704","title":"Hello world!","date":"March 24, 2020","dateISO":"2020-03-24T18:36:53.000Z","datetime":"2020-03-24 18:36","tags":["tweet","en"],"image":null,"imageAlt":null,"provider":"Twitter","thirdPartyId":"1242520779637448704","url":"https://twitter.com/TheOwenYoung/statuses/1242520779637448704","originalUrl":null,"imageRemote":null,"video":null,"channel":null,"channelUrl":null,"author":"Owen Young","authorUrl":"https://twitter.com/TheOwenYoung","authorImage":{"childImageSharp":{"fixed":{"base64":"data:image/jpeg;base64,/9j/2wBDABALDA4MChAODQ4SERATGCgaGBYWGDEjJR0oOjM9PDkzODdASFxOQERXRTc4UG1RV19iZ2hnPk1xeXBkeFxlZ2P/2wBDARESEhgVGC8aGi9jQjhCY2NjY2NjY2NjY2NjY2NjY2NjY2NjY2NjY2NjY2NjY2NjY2NjY2NjY2NjY2NjY2NjY2P/wgARCAAUABQDASIAAhEBAxEB/8QAFwABAQEBAAAAAAAAAAAAAAAAAAUDBP/EABQBAQAAAAAAAAAAAAAAAAAAAAD/2gAMAwEAAhADEAAAAbOTkKIAAP/EABkQAAIDAQAAAAAAAAAAAAAAAAEDAAISIP/aAAgBAQABBQKFgxGZyxlTTj//xAAUEQEAAAAAAAAAAAAAAAAAAAAg/9oACAEDAQE/AR//xAAUEQEAAAAAAAAAAAAAAAAAAAAg/9oACAECAQE/AR//xAAdEAACAgEFAAAAAAAAAAAAAAABAgARAxASICIx/9oACAEBAAY/AoW9A07NtuOTkUsRVDj/AP/EABoQAQEAAgMAAAAAAAAAAAAAAAERAFEQICH/2gAIAQEAAT8hWaAKrgBp6WcMIICV3kvES9f/2gAMAwEAAgADAAAAEFMAPP/EABQRAQAAAAAAAAAAAAAAAAAAACD/2gAIAQMBAT8QH//EABQRAQAAAAAAAAAAAAAAAAAAACD/2gAIAQIBAT8QH//EAB4QAAICAgIDAAAAAAAAAAAAAAERADEhQRBxUYGR/9oACAEBAAE/EHjlgBACAgwl2ujBEjKK8mO6qbOEcZe8ks+oKl3EPA+cf//Z","width":48,"height":48,"src":"/static/3027e906dc677f55b0ae28dab7d69f83/ffcc9/E26HEH2o.jpg","srcSet":"/static/3027e906dc677f55b0ae28dab7d69f83/ffcc9/E26HEH2o.jpg 1x,\n/static/3027e906dc677f55b0ae28dab7d69f83/3e51d/E26HEH2o.jpg 1.5x,\n/static/3027e906dc677f55b0ae28dab7d69f83/eee8e/E26HEH2o.jpg 2x"}}},"authorSlug":"TheOwenYoung","score":0,"views":null,"sharedCount":0,"likeCount":0,"sharedContent":null}]}},"pageContext":{"basePath":"/","pageType":"home","tagsFilter":{},"filter":{},"limit":25,"skip":50,"totalPages":3,"total":53,"currentPage":3,"maxWidth":1024,"maxHeight":512,"locale":"en","hrefLang":"en-US","originalPath":"/page/3","dateFormat":"MM/DD/YYYY"}},"staticQueryHashes":["1239077767","2506312863","2744905544","3416761810","3493603132","3493603132","386998304"]}