{
    "componentChunkName": "component---node-modules-gatsby-theme-timeline-src-templates-posts-query-js",
    "path": "/tags/en/page/3",
    "result": {"data":{"site":{"siteMetadata":{"title":"Owen Young's Story","author":"Owen Young","description":"All my stories are here","keywords":["Owen","Owen Young","Blog","Story"],"siteUrl":"https://blog.owenyoung.com","telegram":"@theowenyoung","iconUrl":"/icon.png","defaultSocialImageUrl":null,"social":[{"name":"Newsletter","url":"https://theowenyoung.substack.com","external":null},{"name":"About","url":"https://wiki.owenyoung.com/about","external":null},{"name":"Now","url":"https://wiki.owenyoung.com/now","external":null},{"name":"Projects","url":"https://wiki.owenyoung.com/projects","external":null},{"name":"Github @theowenyoung","url":"https://github.com/theowenyoung","external":null},{"name":"Twitter @TheOwenYoung","url":"https://twitter.com/TheOwenYoung","external":null},{"name":"中文Twitter @OwenYoung_zh","url":"https://twitter.com/OwenYoung_zh","external":null},{"name":"Telegram @theowenyoung","url":"https://t.me/theowenyoung","external":null},{"name":"Instagram @iamowenyoung","url":"https://www.instagram.com/iamowenyoung/","external":null},{"name":"RSS","url":"/rss.xml","external":null},{"name":"English RSS","url":"/en/rss.xml","external":null},{"name":"中文RSS","url":"/zh/rss.xml","external":null},{"name":"Source","url":"https://github.com/theowenyoung/story","external":null},{"name":"Site Source","url":"https://github.com/theowenyoung/theowenyoung.github.io","external":null}],"menuLinks":[{"name":"仅显示中文","url":"/zh","external":null},{"name":"Only English","url":"/en","external":null}],"disqus":null,"utterances":{"repo":"theowenyoung/story","label":"comment"}}},"tagsGroup":{"group":[{"fieldValue":"Actionsflow","totalCount":3},{"fieldValue":"Blog","totalCount":1},{"fieldValue":"Buzzing","totalCount":1},{"fieldValue":"Entwickler","totalCount":1},{"fieldValue":"Gatsby","totalCount":3},{"fieldValue":"Github Actions","totalCount":1},{"fieldValue":"Hacker News","totalCount":1},{"fieldValue":"IFTTT","totalCount":1},{"fieldValue":"Instagram","totalCount":4},{"fieldValue":"Javascript","totalCount":1},{"fieldValue":"MyTwitterAnniversary","totalCount":1},{"fieldValue":"Notes","totalCount":1},{"fieldValue":"Product","totalCount":1},{"fieldValue":"Reddit","totalCount":2},{"fieldValue":"Release","totalCount":1},{"fieldValue":"Stack","totalCount":1},{"fieldValue":"Theme","totalCount":2},{"fieldValue":"about.md","totalCount":1},{"fieldValue":"anki","totalCount":1},{"fieldValue":"coronavirus","totalCount":1},{"fieldValue":"en","totalCount":56},{"fieldValue":"hello","totalCount":2},{"fieldValue":"image","totalCount":1},{"fieldValue":"kostenlos","totalCount":1},{"fieldValue":"markdown","totalCount":2},{"fieldValue":"news","totalCount":1},{"fieldValue":"no","totalCount":1},{"fieldValue":"now.md","totalCount":1},{"fieldValue":"post","totalCount":27},{"fieldValue":"projects.md","totalCount":1},{"fieldValue":"rsshub","totalCount":1},{"fieldValue":"test","totalCount":4},{"fieldValue":"translate","totalCount":1},{"fieldValue":"tweet","totalCount":258},{"fieldValue":"workflow","totalCount":1},{"fieldValue":"zh","totalCount":226},{"fieldValue":"分享","totalCount":1},{"fieldValue":"单词","totalCount":5},{"fieldValue":"基金","totalCount":1},{"fieldValue":"存款","totalCount":1},{"fieldValue":"学习","totalCount":8},{"fieldValue":"展望理论","totalCount":1},{"fieldValue":"投资","totalCount":2},{"fieldValue":"指南","totalCount":1},{"fieldValue":"推特","totalCount":1},{"fieldValue":"推荐","totalCount":1},{"fieldValue":"改变","totalCount":1},{"fieldValue":"每一天","totalCount":1},{"fieldValue":"省时间就用烂设备","totalCount":1},{"fieldValue":"美股","totalCount":2},{"fieldValue":"翻译","totalCount":1},{"fieldValue":"自由职业","totalCount":1},{"fieldValue":"英文","totalCount":7},{"fieldValue":"规则","totalCount":1},{"fieldValue":"风险偏好","totalCount":1}]},"allBlogPost":{"nodes":[{"id":"TweetPost-1311591409032462337","excerpt":"","slug":"/tweet/1311591409032462337","title":"RT @ProductHuntHi: @theowenyoung FYI, you've been added as a maker of Actionsflow - Automate Workflows on @ProductHunt https://t.co/8mDhOnV…","date":"October 01, 2020","dateISO":"2020-10-01T08:58:54.000Z","datetime":"2020-10-01 08:58","tags":["tweet","en"],"image":null,"imageAlt":null,"__typename":"SocialMediaPost","provider":"Twitter","thirdPartyId":"1311591409032462337","url":"https://twitter.com/TheOwenYoung/statuses/1311591409032462337","originalUrl":null,"imageRemote":null,"video":null,"channel":null,"channelUrl":null,"author":"Owen Young","authorUrl":"https://twitter.com/TheOwenYoung","authorImageRemote":"https://pbs.twimg.com/profile_images/1241298955742273536/E26HEH2o.jpg","authorImage":{"childImageSharp":{"gatsbyImageData":{"layout":"fixed","backgroundColor":"#e8e8e8","images":{"fallback":{"src":"/static/3027e906dc677f55b0ae28dab7d69f83/43773/E26HEH2o.jpg","srcSet":"/static/3027e906dc677f55b0ae28dab7d69f83/43773/E26HEH2o.jpg 48w,\n/static/3027e906dc677f55b0ae28dab7d69f83/f18e1/E26HEH2o.jpg 96w","sizes":"48px"},"sources":[{"srcSet":"/static/3027e906dc677f55b0ae28dab7d69f83/e78b1/E26HEH2o.webp 48w,\n/static/3027e906dc677f55b0ae28dab7d69f83/8ef24/E26HEH2o.webp 96w","type":"image/webp","sizes":"48px"}]},"width":48,"height":48}}},"authorSlug":"TheOwenYoung","score":2,"views":null,"sharedCount":1,"likeCount":0,"sharedContent":{"excerpt":"","slug":"","title":"@theowenyoung FYI, you've been added as a maker of Actionsflow - Automate Workflows on @ProductHunt https://t.co/8mDhOnVNcK","date":"October 01, 2020","dateISO":"2020-10-01T08:37:39.000Z","datetime":"2020-10-01 08:37","tags":[],"imageRemote":null,"image":null,"imageAlt":null,"authorImageRemote":"https://pbs.twimg.com/profile_images/662417488806711296/NucHBWWQ.png","authorImage":{"childImageSharp":{"gatsbyImageData":{"layout":"fixed","backgroundColor":"#f8f8f8","images":{"fallback":{"src":"/static/8b1b7525e7fd08b9cc43ef12d064e9ce/fcdb9/NucHBWWQ.png","srcSet":"/static/8b1b7525e7fd08b9cc43ef12d064e9ce/fcdb9/NucHBWWQ.png 48w,\n/static/8b1b7525e7fd08b9cc43ef12d064e9ce/e3fe2/NucHBWWQ.png 96w","sizes":"48px"},"sources":[{"srcSet":"/static/8b1b7525e7fd08b9cc43ef12d064e9ce/e78b1/NucHBWWQ.webp 48w,\n/static/8b1b7525e7fd08b9cc43ef12d064e9ce/8ef24/NucHBWWQ.webp 96w","type":"image/webp","sizes":"48px"}]},"width":48,"height":48}}},"video":null,"channel":null,"channelUrl":null,"author":"Product Hunt Hi","authorUrl":"https://twitter.com/statuses/ProductHuntHi","authorSlug":"ProductHuntHi","score":null,"views":null,"sharedCount":null,"likeCount":null}},{"id":"TweetPost-1311591127670157312","excerpt":"","slug":"/tweet/1311591127670157312","title":"Just released Actionsflow - Automate Workflows, IFTTT/Zapier free alternative, based on Github Actions https://t.co/mllluD0aD0","date":"October 01, 2020","dateISO":"2020-10-01T08:57:47.000Z","datetime":"2020-10-01 08:57","tags":["tweet","en"],"image":null,"imageAlt":null,"__typename":"SocialMediaPost","provider":"Twitter","thirdPartyId":"1311591127670157312","url":"https://twitter.com/TheOwenYoung/statuses/1311591127670157312","originalUrl":null,"imageRemote":null,"video":null,"channel":null,"channelUrl":null,"author":"Owen Young","authorUrl":"https://twitter.com/TheOwenYoung","authorImageRemote":"https://pbs.twimg.com/profile_images/1241298955742273536/E26HEH2o.jpg","authorImage":{"childImageSharp":{"gatsbyImageData":{"layout":"fixed","backgroundColor":"#e8e8e8","images":{"fallback":{"src":"/static/3027e906dc677f55b0ae28dab7d69f83/43773/E26HEH2o.jpg","srcSet":"/static/3027e906dc677f55b0ae28dab7d69f83/43773/E26HEH2o.jpg 48w,\n/static/3027e906dc677f55b0ae28dab7d69f83/f18e1/E26HEH2o.jpg 96w","sizes":"48px"},"sources":[{"srcSet":"/static/3027e906dc677f55b0ae28dab7d69f83/e78b1/E26HEH2o.webp 48w,\n/static/3027e906dc677f55b0ae28dab7d69f83/8ef24/E26HEH2o.webp 96w","type":"image/webp","sizes":"48px"}]},"width":48,"height":48}}},"authorSlug":"TheOwenYoung","score":6,"views":null,"sharedCount":0,"likeCount":6,"sharedContent":null},{"id":"TweetPost-1291770923133984768","excerpt":"","slug":"/tweet/1291770923133984768","title":"RT @ProductHunt: *sighs in maker* https://t.co/mEiFks3xBR","date":"August 07, 2020","dateISO":"2020-08-07T16:19:22.000Z","datetime":"2020-08-07 16:19","tags":["tweet","en"],"image":{"childImageSharp":{"gatsbyImageData":{"layout":"constrained","backgroundColor":"#382818","images":{"fallback":{"src":"/static/c9aeb675bc21cec39873636e512e305c/ba986/EewYf9UXkAMYtoW.png","srcSet":"/static/c9aeb675bc21cec39873636e512e305c/f4be1/EewYf9UXkAMYtoW.png 300w,\n/static/c9aeb675bc21cec39873636e512e305c/b444b/EewYf9UXkAMYtoW.png 600w,\n/static/c9aeb675bc21cec39873636e512e305c/ba986/EewYf9UXkAMYtoW.png 1200w","sizes":"(min-width: 1200px) 1200px, 100vw"},"sources":[{"srcSet":"/static/c9aeb675bc21cec39873636e512e305c/9b21f/EewYf9UXkAMYtoW.webp 300w,\n/static/c9aeb675bc21cec39873636e512e305c/9ff6b/EewYf9UXkAMYtoW.webp 600w,\n/static/c9aeb675bc21cec39873636e512e305c/f2559/EewYf9UXkAMYtoW.webp 1200w","type":"image/webp","sizes":"(min-width: 1200px) 1200px, 100vw"}]},"width":1200,"height":800}}},"imageAlt":"Tweet Image","__typename":"SocialMediaPost","provider":"Twitter","thirdPartyId":"1291770923133984768","url":"https://twitter.com/TheOwenYoung/statuses/1291770923133984768","originalUrl":null,"imageRemote":"https://pbs.twimg.com/media/EewYf9UXkAMYtoW.png","video":null,"channel":null,"channelUrl":null,"author":"Owen Young","authorUrl":"https://twitter.com/TheOwenYoung","authorImageRemote":"https://pbs.twimg.com/profile_images/1241298955742273536/E26HEH2o.jpg","authorImage":{"childImageSharp":{"gatsbyImageData":{"layout":"fixed","backgroundColor":"#e8e8e8","images":{"fallback":{"src":"/static/3027e906dc677f55b0ae28dab7d69f83/43773/E26HEH2o.jpg","srcSet":"/static/3027e906dc677f55b0ae28dab7d69f83/43773/E26HEH2o.jpg 48w,\n/static/3027e906dc677f55b0ae28dab7d69f83/f18e1/E26HEH2o.jpg 96w","sizes":"48px"},"sources":[{"srcSet":"/static/3027e906dc677f55b0ae28dab7d69f83/e78b1/E26HEH2o.webp 48w,\n/static/3027e906dc677f55b0ae28dab7d69f83/8ef24/E26HEH2o.webp 96w","type":"image/webp","sizes":"48px"}]},"width":48,"height":48}}},"authorSlug":"TheOwenYoung","score":548,"views":null,"sharedCount":274,"likeCount":0,"sharedContent":{"excerpt":"","slug":"","title":"*sighs in maker* https://t.co/mEiFks3xBR","date":"August 06, 2020","dateISO":"2020-08-06T18:01:06.000Z","datetime":"2020-08-06 18:01","tags":[],"imageRemote":"https://pbs.twimg.com/media/EewYf9UXkAMYtoW.png","image":{"childImageSharp":{"gatsbyImageData":{"layout":"constrained","backgroundColor":"#382818","images":{"fallback":{"src":"/static/c9aeb675bc21cec39873636e512e305c/ba986/EewYf9UXkAMYtoW.png","srcSet":"/static/c9aeb675bc21cec39873636e512e305c/f4be1/EewYf9UXkAMYtoW.png 300w,\n/static/c9aeb675bc21cec39873636e512e305c/b444b/EewYf9UXkAMYtoW.png 600w,\n/static/c9aeb675bc21cec39873636e512e305c/ba986/EewYf9UXkAMYtoW.png 1200w","sizes":"(min-width: 1200px) 1200px, 100vw"},"sources":[{"srcSet":"/static/c9aeb675bc21cec39873636e512e305c/9b21f/EewYf9UXkAMYtoW.webp 300w,\n/static/c9aeb675bc21cec39873636e512e305c/9ff6b/EewYf9UXkAMYtoW.webp 600w,\n/static/c9aeb675bc21cec39873636e512e305c/f2559/EewYf9UXkAMYtoW.webp 1200w","type":"image/webp","sizes":"(min-width: 1200px) 1200px, 100vw"}]},"width":1200,"height":800}}},"imageAlt":"Tweet Image","authorImageRemote":"https://pbs.twimg.com/profile_images/1278008340577206274/nF3h-Jf3.jpg","authorImage":null,"video":null,"channel":null,"channelUrl":null,"author":"Product Hunt 😺","authorUrl":"https://twitter.com/statuses/ProductHunt","authorSlug":"ProductHunt","score":null,"views":null,"sharedCount":null,"likeCount":null}},{"id":"TweetPost-1253279286317875202","excerpt":"","slug":"/tweet/1253279286317875202","title":"Jamstack for authors.","date":"April 23, 2020","dateISO":"2020-04-23T11:07:21.000Z","datetime":"2020-04-23 11:07","tags":["tweet","en"],"image":null,"imageAlt":null,"__typename":"SocialMediaPost","provider":"Twitter","thirdPartyId":"1253279286317875202","url":"https://twitter.com/TheOwenYoung/statuses/1253279286317875202","originalUrl":null,"imageRemote":null,"video":null,"channel":null,"channelUrl":null,"author":"Owen Young","authorUrl":"https://twitter.com/TheOwenYoung","authorImageRemote":"https://pbs.twimg.com/profile_images/1241298955742273536/E26HEH2o.jpg","authorImage":{"childImageSharp":{"gatsbyImageData":{"layout":"fixed","backgroundColor":"#e8e8e8","images":{"fallback":{"src":"/static/3027e906dc677f55b0ae28dab7d69f83/43773/E26HEH2o.jpg","srcSet":"/static/3027e906dc677f55b0ae28dab7d69f83/43773/E26HEH2o.jpg 48w,\n/static/3027e906dc677f55b0ae28dab7d69f83/f18e1/E26HEH2o.jpg 96w","sizes":"48px"},"sources":[{"srcSet":"/static/3027e906dc677f55b0ae28dab7d69f83/e78b1/E26HEH2o.webp 48w,\n/static/3027e906dc677f55b0ae28dab7d69f83/8ef24/E26HEH2o.webp 96w","type":"image/webp","sizes":"48px"}]},"width":48,"height":48}}},"authorSlug":"TheOwenYoung","score":0,"views":null,"sharedCount":0,"likeCount":0,"sharedContent":null},{"id":"TweetPost-1253262538063507462","excerpt":"","slug":"/tweet/1253262538063507462","title":"RT @vercel: ZEIT is now Vercel.\n\nAnnouncing our new brand identity and $21M Series A funding.\n\nhttps://t.co/7smdU5Gsl5 https://t.co/jNoVXnq…","date":"April 23, 2020","dateISO":"2020-04-23T10:00:48.000Z","datetime":"2020-04-23 10:00","tags":["tweet","en"],"image":null,"imageAlt":null,"__typename":"SocialMediaPost","provider":"Twitter","thirdPartyId":"1253262538063507462","url":"https://twitter.com/TheOwenYoung/statuses/1253262538063507462","originalUrl":null,"imageRemote":null,"video":null,"channel":null,"channelUrl":null,"author":"Owen Young","authorUrl":"https://twitter.com/TheOwenYoung","authorImageRemote":"https://pbs.twimg.com/profile_images/1241298955742273536/E26HEH2o.jpg","authorImage":{"childImageSharp":{"gatsbyImageData":{"layout":"fixed","backgroundColor":"#e8e8e8","images":{"fallback":{"src":"/static/3027e906dc677f55b0ae28dab7d69f83/43773/E26HEH2o.jpg","srcSet":"/static/3027e906dc677f55b0ae28dab7d69f83/43773/E26HEH2o.jpg 48w,\n/static/3027e906dc677f55b0ae28dab7d69f83/f18e1/E26HEH2o.jpg 96w","sizes":"48px"},"sources":[{"srcSet":"/static/3027e906dc677f55b0ae28dab7d69f83/e78b1/E26HEH2o.webp 48w,\n/static/3027e906dc677f55b0ae28dab7d69f83/8ef24/E26HEH2o.webp 96w","type":"image/webp","sizes":"48px"}]},"width":48,"height":48}}},"authorSlug":"TheOwenYoung","score":1292,"views":null,"sharedCount":646,"likeCount":0,"sharedContent":{"excerpt":"","slug":"","title":"ZEIT is now Vercel.\n\nAnnouncing our new brand identity and $21M Series A funding.\n\nhttps://t.co/7smdU5Gsl5 https://t.co/jNoVXnqpRD","date":"April 21, 2020","dateISO":"2020-04-21T09:35:08.000Z","datetime":"2020-04-21 09:35","tags":[],"imageRemote":"https://pbs.twimg.com/tweet_video_thumb/EWHiiNFWAAM0Aom.jpg","image":null,"imageAlt":"Tweet Image","authorImageRemote":"https://pbs.twimg.com/profile_images/1252531684353998848/6R0-p1Vf.jpg","authorImage":{"childImageSharp":{"gatsbyImageData":{"layout":"fixed","backgroundColor":"#080808","images":{"fallback":{"src":"/static/f57fac79ebd3a14abdb3c2cce39e2b63/43773/6R0-p1Vf.jpg","srcSet":"/static/f57fac79ebd3a14abdb3c2cce39e2b63/43773/6R0-p1Vf.jpg 48w,\n/static/f57fac79ebd3a14abdb3c2cce39e2b63/f18e1/6R0-p1Vf.jpg 96w","sizes":"48px"},"sources":[{"srcSet":"/static/f57fac79ebd3a14abdb3c2cce39e2b63/e78b1/6R0-p1Vf.webp 48w,\n/static/f57fac79ebd3a14abdb3c2cce39e2b63/8ef24/6R0-p1Vf.webp 96w","type":"image/webp","sizes":"48px"}]},"width":48,"height":48}}},"video":null,"channel":null,"channelUrl":null,"author":"Vercel","authorUrl":"https://twitter.com/statuses/vercel","authorSlug":"vercel","score":null,"views":null,"sharedCount":null,"likeCount":null}},{"id":"TweetPost-1242520779637448704","excerpt":"","slug":"/tweet/1242520779637448704","title":"Hello world!","date":"March 24, 2020","dateISO":"2020-03-24T18:36:53.000Z","datetime":"2020-03-24 18:36","tags":["tweet","en"],"image":null,"imageAlt":null,"__typename":"SocialMediaPost","provider":"Twitter","thirdPartyId":"1242520779637448704","url":"https://twitter.com/TheOwenYoung/statuses/1242520779637448704","originalUrl":null,"imageRemote":null,"video":null,"channel":null,"channelUrl":null,"author":"Owen Young","authorUrl":"https://twitter.com/TheOwenYoung","authorImageRemote":"https://pbs.twimg.com/profile_images/1241298955742273536/E26HEH2o.jpg","authorImage":{"childImageSharp":{"gatsbyImageData":{"layout":"fixed","backgroundColor":"#e8e8e8","images":{"fallback":{"src":"/static/3027e906dc677f55b0ae28dab7d69f83/43773/E26HEH2o.jpg","srcSet":"/static/3027e906dc677f55b0ae28dab7d69f83/43773/E26HEH2o.jpg 48w,\n/static/3027e906dc677f55b0ae28dab7d69f83/f18e1/E26HEH2o.jpg 96w","sizes":"48px"},"sources":[{"srcSet":"/static/3027e906dc677f55b0ae28dab7d69f83/e78b1/E26HEH2o.webp 48w,\n/static/3027e906dc677f55b0ae28dab7d69f83/8ef24/E26HEH2o.webp 96w","type":"image/webp","sizes":"48px"}]},"width":48,"height":48}}},"authorSlug":"TheOwenYoung","score":0,"views":null,"sharedCount":0,"likeCount":0,"sharedContent":null}]}},"pageContext":{"basePath":"/","pageType":"tag","tag":"en","tagsFilter":{},"filter":{"tags":{"eq":"en"}},"limit":25,"skip":50,"total":56,"totalPages":3,"currentPage":3,"maxWidth":1024,"maxHeight":512,"siteMetadata":null,"locale":"en","hrefLang":"en-US","originalPath":"/tags/en/page/3","dateFormat":"MM/DD/YYYY"}},
    "staticQueryHashes": ["1239077767","1915960717","2744905544","3280999885"]}