{"componentChunkName":"component---node-modules-gatsby-theme-timeline-src-templates-posts-query-js","path":"/page/4","result":{"data":{"site":{"siteMetadata":{"title":"Owen Young's Story","description":"All my stories are here","social":[{"name":"About","url":"/about","external":null,"prefetch":null},{"name":"Now","url":"/now","external":null,"prefetch":null},{"name":"Projects","url":"/projects","external":null,"prefetch":null},{"name":"Github @theowenyoung","url":"https://github.com/theowenyoung","external":null,"prefetch":null},{"name":"Twitter @TheOwenYoung","url":"https://twitter.com/TheOwenYoung","external":null,"prefetch":null},{"name":"中文Twitter @OwenYoung_zh","url":"https://twitter.com/OwenYoung_zh","external":null,"prefetch":null},{"name":"Instagram @iamowenyoung","url":"https://www.instagram.com/iamowenyoung/","external":null,"prefetch":null},{"name":"RSS","url":"/rss.xml","external":null,"prefetch":null},{"name":"English RSS","url":"/en/rss.xml","external":null,"prefetch":null},{"name":"中文RSS","url":"/zh/rss.xml","external":null,"prefetch":null},{"name":"Source","url":"https://github.com/theowenyoung/story","external":null,"prefetch":null},{"name":"Site Source","url":"https://github.com/theowenyoung/theowenyoung.github.io","external":null,"prefetch":null}],"menuLinks":[{"name":"仅显示中文","url":"/zh","external":null,"prefetch":null},{"name":"Only English","url":"/en","external":null,"prefetch":null}]}},"tagsGroup":{"group":[{"fieldValue":"Actionsflow","totalCount":3},{"fieldValue":"Blog","totalCount":1},{"fieldValue":"Buzzing","totalCount":1},{"fieldValue":"Entwickler","totalCount":1},{"fieldValue":"Gatsby","totalCount":2},{"fieldValue":"Github Actions","totalCount":1},{"fieldValue":"IFTTT","totalCount":1},{"fieldValue":"Instagram","totalCount":4},{"fieldValue":"Product","totalCount":1},{"fieldValue":"Reddit","totalCount":1},{"fieldValue":"Release","totalCount":1},{"fieldValue":"Stack","totalCount":1},{"fieldValue":"Theme","totalCount":2},{"fieldValue":"anki","totalCount":1},{"fieldValue":"coronavirus","totalCount":1},{"fieldValue":"en","totalCount":25},{"fieldValue":"hello","totalCount":2},{"fieldValue":"image","totalCount":1},{"fieldValue":"kostenlos","totalCount":1},{"fieldValue":"markdown","totalCount":2},{"fieldValue":"no","totalCount":1},{"fieldValue":"post","totalCount":14},{"fieldValue":"rsshub","totalCount":1},{"fieldValue":"test","totalCount":4},{"fieldValue":"tweet","totalCount":62},{"fieldValue":"workflow","totalCount":1},{"fieldValue":"zh","totalCount":51},{"fieldValue":"单词","totalCount":5},{"fieldValue":"学习","totalCount":7},{"fieldValue":"投资","totalCount":1},{"fieldValue":"英文","totalCount":7}]},"allBlogPost":{"nodes":[{"__typename":"SocialMediaPost","id":"InstagramPost-17869684195728842","excerpt":"","slug":"/instagram/17869684195728842","title":"#coronavirus #no so bad","date":"April 25, 2020","dateISO":"2020-04-25T10:22:38.000Z","datetime":"2020-04-25 10:22","tags":["coronavirus","no","Instagram"],"image":{"childImageSharp":{"fluid":{"base64":"data:image/jpeg;base64,/9j/2wBDABALDA4MChAODQ4SERATGCgaGBYWGDEjJR0oOjM9PDkzODdASFxOQERXRTc4UG1RV19iZ2hnPk1xeXBkeFxlZ2P/2wBDARESEhgVGC8aGi9jQjhCY2NjY2NjY2NjY2NjY2NjY2NjY2NjY2NjY2NjY2NjY2NjY2NjY2NjY2NjY2NjY2NjY2P/wgARCAAUABQDASIAAhEBAxEB/8QAGAABAQEBAQAAAAAAAAAAAAAAAAMBAgX/xAAWAQEBAQAAAAAAAAAAAAAAAAABAgD/2gAMAwEAAhADEAAAAfD7lu1ECUwm+Az/AP/EABoQAAICAwAAAAAAAAAAAAAAAAABAiIQETH/2gAIAQEAAQUCWihUQ8RH0//EABcRAAMBAAAAAAAAAAAAAAAAAAABERD/2gAIAQMBAT8BhB5//8QAFhEBAQEAAAAAAAAAAAAAAAAAEQAQ/9oACAECAQE/AWd//8QAFxAAAwEAAAAAAAAAAAAAAAAAACEwQf/aAAgBAQAGPwJmw//EABsQAQACAgMAAAAAAAAAAAAAAAEAEXGRECBB/9oACAEBAAE/IbbUzLQi+V0cch6j/9oADAMBAAIAAwAAABB4wH3/xAAaEQABBQEAAAAAAAAAAAAAAAAAARARMVFx/9oACAEDAQE/ENSdFEb/xAAXEQEAAwAAAAAAAAAAAAAAAAAQAREx/9oACAECAQE/ELYIP//EAB8QAQACAQMFAAAAAAAAAAAAAAEAESExYcEQQVFx0f/aAAgBAQABPxAgWbwFcwwRu2+8s6DcuYG7sN0isq8dqemg9w5vljqz/9k=","aspectRatio":1,"src":"/static/247967aa5883cf1564b57519586c0a97/eb5c9/94169052_3071944286203383_250459185632461249_n.jpg","srcSet":"/static/247967aa5883cf1564b57519586c0a97/3e888/94169052_3071944286203383_250459185632461249_n.jpg 128w,\n/static/247967aa5883cf1564b57519586c0a97/603f9/94169052_3071944286203383_250459185632461249_n.jpg 256w,\n/static/247967aa5883cf1564b57519586c0a97/eb5c9/94169052_3071944286203383_250459185632461249_n.jpg 512w,\n/static/247967aa5883cf1564b57519586c0a97/d1ebb/94169052_3071944286203383_250459185632461249_n.jpg 768w,\n/static/247967aa5883cf1564b57519586c0a97/fba5a/94169052_3071944286203383_250459185632461249_n.jpg 1024w,\n/static/247967aa5883cf1564b57519586c0a97/90e7f/94169052_3071944286203383_250459185632461249_n.jpg 1080w","sizes":"(max-width: 512px) 100vw, 512px"}}},"imageAlt":null,"provider":"Instagram","thirdPartyId":"17869684195728842","url":"https://www.instagram.com/p/B_ZnxcNnfCa/","originalUrl":"https://www.instagram.com/p/B_ZnxcNnfCa/","imageRemote":"https://scontent-lax3-1.cdninstagram.com/v/t51.2885-15/94169052_3071944286203383_250459185632461249_n.jpg?_nc_cat=102&ccb=2&_nc_sid=8ae9d6&_nc_ohc=mrmFbLbLfeIAX8hhBzd&_nc_ht=scontent-lax3-1.cdninstagram.com&oh=ce7c2480b1f0c6765f525718da8f51c5&oe=602F563C","video":null,"channel":"iamowenyoung","channelUrl":"https://www.instagram.com//iamowenyoung","author":"iamowenyoung","authorUrl":"https://www.instagram.com//iamowenyoung","authorImage":null,"authorSlug":null,"score":null,"views":null,"sharedCount":null,"likeCount":null,"sharedContent":null},{"__typename":"SocialMediaPost","id":"TweetPost-1253279286317875202","excerpt":"","slug":"/tweet/1253279286317875202","title":"Jamstack for authors.","date":"April 23, 2020","dateISO":"2020-04-23T11:07:21.000Z","datetime":"2020-04-23 11:07","tags":["tweet","en"],"image":null,"imageAlt":null,"provider":"Twitter","thirdPartyId":"1253279286317875202","url":"https://twitter.com/TheOwenYoung/statuses/1253279286317875202","originalUrl":null,"imageRemote":null,"video":null,"channel":null,"channelUrl":null,"author":"Owen Young","authorUrl":"https://twitter.com/TheOwenYoung","authorImage":{"childImageSharp":{"fixed":{"base64":"data:image/jpeg;base64,/9j/2wBDABALDA4MChAODQ4SERATGCgaGBYWGDEjJR0oOjM9PDkzODdASFxOQERXRTc4UG1RV19iZ2hnPk1xeXBkeFxlZ2P/2wBDARESEhgVGC8aGi9jQjhCY2NjY2NjY2NjY2NjY2NjY2NjY2NjY2NjY2NjY2NjY2NjY2NjY2NjY2NjY2NjY2NjY2P/wgARCAAUABQDASIAAhEBAxEB/8QAFwABAQEBAAAAAAAAAAAAAAAAAAUDBP/EABQBAQAAAAAAAAAAAAAAAAAAAAD/2gAMAwEAAhADEAAAAbOTkKIAAP/EABkQAAIDAQAAAAAAAAAAAAAAAAEDAAISIP/aAAgBAQABBQKFgxGZyxlTTj//xAAUEQEAAAAAAAAAAAAAAAAAAAAg/9oACAEDAQE/AR//xAAUEQEAAAAAAAAAAAAAAAAAAAAg/9oACAECAQE/AR//xAAdEAACAgEFAAAAAAAAAAAAAAABAgARAxASICIx/9oACAEBAAY/AoW9A07NtuOTkUsRVDj/AP/EABoQAQEAAgMAAAAAAAAAAAAAAAERAFEQICH/2gAIAQEAAT8hWaAKrgBp6WcMIICV3kvES9f/2gAMAwEAAgADAAAAEFMAPP/EABQRAQAAAAAAAAAAAAAAAAAAACD/2gAIAQMBAT8QH//EABQRAQAAAAAAAAAAAAAAAAAAACD/2gAIAQIBAT8QH//EAB4QAAICAgIDAAAAAAAAAAAAAAERADEhQRBxUYGR/9oACAEBAAE/EHjlgBACAgwl2ujBEjKK8mO6qbOEcZe8ks+oKl3EPA+cf//Z","width":48,"height":48,"src":"/static/3027e906dc677f55b0ae28dab7d69f83/ffcc9/E26HEH2o.jpg","srcSet":"/static/3027e906dc677f55b0ae28dab7d69f83/ffcc9/E26HEH2o.jpg 1x,\n/static/3027e906dc677f55b0ae28dab7d69f83/3e51d/E26HEH2o.jpg 1.5x,\n/static/3027e906dc677f55b0ae28dab7d69f83/eee8e/E26HEH2o.jpg 2x"}}},"authorSlug":"TheOwenYoung","score":0,"views":null,"sharedCount":0,"likeCount":0,"sharedContent":null},{"__typename":"SocialMediaPost","id":"TweetPost-1253262538063507462","excerpt":"","slug":"/tweet/1253262538063507462","title":"RT @vercel: ZEIT is now Vercel.\n\nAnnouncing our new brand identity and $21M Series A funding.\n\nhttps://t.co/7smdU5Gsl5 https://t.co/jNoVXnq…","date":"April 23, 2020","dateISO":"2020-04-23T10:00:48.000Z","datetime":"2020-04-23 10:00","tags":["tweet","en"],"image":null,"imageAlt":null,"provider":"Twitter","thirdPartyId":"1253262538063507462","url":"https://twitter.com/TheOwenYoung/statuses/1253262538063507462","originalUrl":null,"imageRemote":null,"video":null,"channel":null,"channelUrl":null,"author":"Owen Young","authorUrl":"https://twitter.com/TheOwenYoung","authorImage":{"childImageSharp":{"fixed":{"base64":"data:image/jpeg;base64,/9j/2wBDABALDA4MChAODQ4SERATGCgaGBYWGDEjJR0oOjM9PDkzODdASFxOQERXRTc4UG1RV19iZ2hnPk1xeXBkeFxlZ2P/2wBDARESEhgVGC8aGi9jQjhCY2NjY2NjY2NjY2NjY2NjY2NjY2NjY2NjY2NjY2NjY2NjY2NjY2NjY2NjY2NjY2NjY2P/wgARCAAUABQDASIAAhEBAxEB/8QAFwABAQEBAAAAAAAAAAAAAAAAAAUDBP/EABQBAQAAAAAAAAAAAAAAAAAAAAD/2gAMAwEAAhADEAAAAbOTkKIAAP/EABkQAAIDAQAAAAAAAAAAAAAAAAEDAAISIP/aAAgBAQABBQKFgxGZyxlTTj//xAAUEQEAAAAAAAAAAAAAAAAAAAAg/9oACAEDAQE/AR//xAAUEQEAAAAAAAAAAAAAAAAAAAAg/9oACAECAQE/AR//xAAdEAACAgEFAAAAAAAAAAAAAAABAgARAxASICIx/9oACAEBAAY/AoW9A07NtuOTkUsRVDj/AP/EABoQAQEAAgMAAAAAAAAAAAAAAAERAFEQICH/2gAIAQEAAT8hWaAKrgBp6WcMIICV3kvES9f/2gAMAwEAAgADAAAAEFMAPP/EABQRAQAAAAAAAAAAAAAAAAAAACD/2gAIAQMBAT8QH//EABQRAQAAAAAAAAAAAAAAAAAAACD/2gAIAQIBAT8QH//EAB4QAAICAgIDAAAAAAAAAAAAAAERADEhQRBxUYGR/9oACAEBAAE/EHjlgBACAgwl2ujBEjKK8mO6qbOEcZe8ks+oKl3EPA+cf//Z","width":48,"height":48,"src":"/static/3027e906dc677f55b0ae28dab7d69f83/ffcc9/E26HEH2o.jpg","srcSet":"/static/3027e906dc677f55b0ae28dab7d69f83/ffcc9/E26HEH2o.jpg 1x,\n/static/3027e906dc677f55b0ae28dab7d69f83/3e51d/E26HEH2o.jpg 1.5x,\n/static/3027e906dc677f55b0ae28dab7d69f83/eee8e/E26HEH2o.jpg 2x"}}},"authorSlug":"TheOwenYoung","score":1292,"views":null,"sharedCount":646,"likeCount":0,"sharedContent":{"excerpt":"","slug":"","title":"ZEIT is now Vercel.\n\nAnnouncing our new brand identity and $21M Series A funding.\n\nhttps://t.co/7smdU5Gsl5 https://t.co/jNoVXnqpRD","date":"April 21, 2020","dateISO":"2020-04-21T09:35:08.000Z","datetime":"2020-04-21 09:35","tags":[],"imageRemote":"https://pbs.twimg.com/tweet_video_thumb/EWHiiNFWAAM0Aom.jpg","image":null,"imageAlt":"Tweet Image","authorImage":{"childImageSharp":{"fixed":{"base64":"data:image/jpeg;base64,/9j/2wBDABALDA4MChAODQ4SERATGCgaGBYWGDEjJR0oOjM9PDkzODdASFxOQERXRTc4UG1RV19iZ2hnPk1xeXBkeFxlZ2P/2wBDARESEhgVGC8aGi9jQjhCY2NjY2NjY2NjY2NjY2NjY2NjY2NjY2NjY2NjY2NjY2NjY2NjY2NjY2NjY2NjY2NjY2P/wgARCAAUABQDASIAAhEBAxEB/8QAGAABAAMBAAAAAAAAAAAAAAAAAAECBQb/xAAUAQEAAAAAAAAAAAAAAAAAAAAA/9oADAMBAAIQAxAAAAHn7TpmSAAD/8QAGxAAAQQDAAAAAAAAAAAAAAAAAgEDBBIAECD/2gAIAQEAAQUCxRUdBW8uQy8HH//EABQRAQAAAAAAAAAAAAAAAAAAACD/2gAIAQMBAT8BH//EABQRAQAAAAAAAAAAAAAAAAAAACD/2gAIAQIBAT8BH//EAB4QAAIBAwUAAAAAAAAAAAAAAAECABESMRAgITJB/9oACAEBAAY/AoKjPOgv6+0gtVgy42//xAAcEAACAQUBAAAAAAAAAAAAAAABEQAQICFBYVH/2gAIAQEAAT8hmaQROimwZdIB9wAEvLf/2gAMAwEAAgADAAAAEHAAAP/EABQRAQAAAAAAAAAAAAAAAAAAACD/2gAIAQMBAT8QH//EABQRAQAAAAAAAAAAAAAAAAAAACD/2gAIAQIBAT8QH//EAB0QAQABAwUAAAAAAAAAAAAAAAERACExECBBUXH/2gAIAQEAAT8QoxAnKZMJowtkECUchSNEBC7LHyNv/9k=","width":24,"height":24,"src":"/static/f57fac79ebd3a14abdb3c2cce39e2b63/d6e51/6R0-p1Vf.jpg","srcSet":"/static/f57fac79ebd3a14abdb3c2cce39e2b63/d6e51/6R0-p1Vf.jpg 1x,\n/static/f57fac79ebd3a14abdb3c2cce39e2b63/6d45f/6R0-p1Vf.jpg 1.5x,\n/static/f57fac79ebd3a14abdb3c2cce39e2b63/ffcc9/6R0-p1Vf.jpg 2x"}}},"video":null,"channel":null,"channelUrl":null,"author":"Vercel","authorUrl":"https://twitter.com/statuses/vercel","authorSlug":"vercel","score":null,"views":null,"sharedCount":null,"likeCount":null}},{"__typename":"SocialMediaPost","id":"InstagramPost-17875006387615111","excerpt":"","slug":"/instagram/17875006387615111","title":"For avatar.","date":"April 02, 2020","dateISO":"2020-04-02T15:30:51.000Z","datetime":"2020-04-02 15:30","tags":["Instagram"],"image":{"childImageSharp":{"fluid":{"base64":"data:image/jpeg;base64,/9j/2wBDABALDA4MChAODQ4SERATGCgaGBYWGDEjJR0oOjM9PDkzODdASFxOQERXRTc4UG1RV19iZ2hnPk1xeXBkeFxlZ2P/2wBDARESEhgVGC8aGi9jQjhCY2NjY2NjY2NjY2NjY2NjY2NjY2NjY2NjY2NjY2NjY2NjY2NjY2NjY2NjY2NjY2NjY2P/wgARCAAUABQDASIAAhEBAxEB/8QAFwABAQEBAAAAAAAAAAAAAAAAAAUDBP/EABQBAQAAAAAAAAAAAAAAAAAAAAD/2gAMAwEAAhADEAAAAbeTlKAAAP/EABoQAAEFAQAAAAAAAAAAAAAAAAIAAQMREiD/2gAIAQEAAQUCW2ypM1IYuHH/xAAUEQEAAAAAAAAAAAAAAAAAAAAg/9oACAEDAQE/AR//xAAUEQEAAAAAAAAAAAAAAAAAAAAg/9oACAECAQE/AR//xAAcEAABBAMBAAAAAAAAAAAAAAABAAIRIhAgITH/2gAIAQEABj8CRd7GLGE+7SSI5r//xAAaEAEBAAIDAAAAAAAAAAAAAAABEQAQIDFR/9oACAEBAAE/IVngBa4kZB3mkGCUguLzJRxf/9oADAMBAAIAAwAAABBAADz/xAAUEQEAAAAAAAAAAAAAAAAAAAAg/9oACAEDAQE/EB//xAAUEQEAAAAAAAAAAAAAAAAAAAAg/9oACAECAQE/EB//xAAcEAACAQUBAAAAAAAAAAAAAAABERAAITFBcVH/2gAIAQEAAT8QviSwCIAUNoTFmuGNZNRNsdximBqPm73clmUPI//Z","aspectRatio":1,"src":"/static/b0fc7fb47e603bc47af5f628de44d5de/eb5c9/91701712_3402665496416635_8484844391940795634_n.jpg","srcSet":"/static/b0fc7fb47e603bc47af5f628de44d5de/3e888/91701712_3402665496416635_8484844391940795634_n.jpg 128w,\n/static/b0fc7fb47e603bc47af5f628de44d5de/603f9/91701712_3402665496416635_8484844391940795634_n.jpg 256w,\n/static/b0fc7fb47e603bc47af5f628de44d5de/eb5c9/91701712_3402665496416635_8484844391940795634_n.jpg 512w,\n/static/b0fc7fb47e603bc47af5f628de44d5de/d1ebb/91701712_3402665496416635_8484844391940795634_n.jpg 768w,\n/static/b0fc7fb47e603bc47af5f628de44d5de/fba5a/91701712_3402665496416635_8484844391940795634_n.jpg 1024w,\n/static/b0fc7fb47e603bc47af5f628de44d5de/90e7f/91701712_3402665496416635_8484844391940795634_n.jpg 1080w","sizes":"(max-width: 512px) 100vw, 512px"}}},"imageAlt":null,"provider":"Instagram","thirdPartyId":"17875006387615111","url":"https://www.instagram.com/p/B-e8wxNJM6p/","originalUrl":"https://www.instagram.com/p/B-e8wxNJM6p/","imageRemote":"https://scontent-lax3-1.cdninstagram.com/v/t51.2885-15/91701712_3402665496416635_8484844391940795634_n.jpg?_nc_cat=104&ccb=2&_nc_sid=8ae9d6&_nc_ohc=kffyLTiBW4wAX820Iv7&_nc_ht=scontent-lax3-1.cdninstagram.com&oh=c646b6ce825995823f6584f14feab35c&oe=602F18D7","video":null,"channel":"iamowenyoung","channelUrl":"https://www.instagram.com//iamowenyoung","author":"iamowenyoung","authorUrl":"https://www.instagram.com//iamowenyoung","authorImage":null,"authorSlug":null,"score":null,"views":null,"sharedCount":null,"likeCount":null,"sharedContent":null},{"__typename":"SocialMediaPost","id":"TweetPost-1242520779637448704","excerpt":"","slug":"/tweet/1242520779637448704","title":"Hello world!","date":"March 24, 2020","dateISO":"2020-03-24T18:36:53.000Z","datetime":"2020-03-24 18:36","tags":["tweet","en"],"image":null,"imageAlt":null,"provider":"Twitter","thirdPartyId":"1242520779637448704","url":"https://twitter.com/TheOwenYoung/statuses/1242520779637448704","originalUrl":null,"imageRemote":null,"video":null,"channel":null,"channelUrl":null,"author":"Owen Young","authorUrl":"https://twitter.com/TheOwenYoung","authorImage":{"childImageSharp":{"fixed":{"base64":"data:image/jpeg;base64,/9j/2wBDABALDA4MChAODQ4SERATGCgaGBYWGDEjJR0oOjM9PDkzODdASFxOQERXRTc4UG1RV19iZ2hnPk1xeXBkeFxlZ2P/2wBDARESEhgVGC8aGi9jQjhCY2NjY2NjY2NjY2NjY2NjY2NjY2NjY2NjY2NjY2NjY2NjY2NjY2NjY2NjY2NjY2NjY2P/wgARCAAUABQDASIAAhEBAxEB/8QAFwABAQEBAAAAAAAAAAAAAAAAAAUDBP/EABQBAQAAAAAAAAAAAAAAAAAAAAD/2gAMAwEAAhADEAAAAbOTkKIAAP/EABkQAAIDAQAAAAAAAAAAAAAAAAEDAAISIP/aAAgBAQABBQKFgxGZyxlTTj//xAAUEQEAAAAAAAAAAAAAAAAAAAAg/9oACAEDAQE/AR//xAAUEQEAAAAAAAAAAAAAAAAAAAAg/9oACAECAQE/AR//xAAdEAACAgEFAAAAAAAAAAAAAAABAgARAxASICIx/9oACAEBAAY/AoW9A07NtuOTkUsRVDj/AP/EABoQAQEAAgMAAAAAAAAAAAAAAAERAFEQICH/2gAIAQEAAT8hWaAKrgBp6WcMIICV3kvES9f/2gAMAwEAAgADAAAAEFMAPP/EABQRAQAAAAAAAAAAAAAAAAAAACD/2gAIAQMBAT8QH//EABQRAQAAAAAAAAAAAAAAAAAAACD/2gAIAQIBAT8QH//EAB4QAAICAgIDAAAAAAAAAAAAAAERADEhQRBxUYGR/9oACAEBAAE/EHjlgBACAgwl2ujBEjKK8mO6qbOEcZe8ks+oKl3EPA+cf//Z","width":48,"height":48,"src":"/static/3027e906dc677f55b0ae28dab7d69f83/ffcc9/E26HEH2o.jpg","srcSet":"/static/3027e906dc677f55b0ae28dab7d69f83/ffcc9/E26HEH2o.jpg 1x,\n/static/3027e906dc677f55b0ae28dab7d69f83/3e51d/E26HEH2o.jpg 1.5x,\n/static/3027e906dc677f55b0ae28dab7d69f83/eee8e/E26HEH2o.jpg 2x"}}},"authorSlug":"TheOwenYoung","score":0,"views":null,"sharedCount":0,"likeCount":0,"sharedContent":null}]}},"pageContext":{"basePath":"/","pageType":"home","tagsFilter":{},"filter":{},"limit":25,"skip":75,"totalPages":4,"total":80,"currentPage":4,"maxWidth":1024,"maxHeight":512,"locale":"en","hrefLang":"en-US","originalPath":"/page/4","dateFormat":"MM/DD/YYYY"}},"staticQueryHashes":["1239077767","1342380767","1915960717","2506312863","2744905544","3416761810","3493603132","3493603132","386998304"]}